%YAML 1.1
%TAG !u! tag:unity3d.com,2011:
--- !u!29 &1
OcclusionCullingSettings:
  m_ObjectHideFlags: 0
  serializedVersion: 2
  m_OcclusionBakeSettings:
    smallestOccluder: 5
    smallestHole: 0.25
    backfaceThreshold: 100
  m_SceneGUID: 00000000000000000000000000000000
  m_OcclusionCullingData: {fileID: 0}
--- !u!104 &2
RenderSettings:
  m_ObjectHideFlags: 0
  serializedVersion: 9
  m_Fog: 0
  m_FogColor: {r: 0.5, g: 0.5, b: 0.5, a: 1}
  m_FogMode: 3
  m_FogDensity: 0.01
  m_LinearFogStart: 0
  m_LinearFogEnd: 300
  m_AmbientSkyColor: {r: 0.29411766, g: 0.37647063, b: 0.5176471, a: 1}
  m_AmbientEquatorColor: {r: 0.6901961, g: 0.8313726, b: 0.9843138, a: 1}
  m_AmbientGroundColor: {r: 1, g: 1, b: 1, a: 1}
  m_AmbientIntensity: 1
  m_AmbientMode: 0
  m_SubtractiveShadowColor: {r: 0.42, g: 0.478, b: 0.627, a: 1}
  m_SkyboxMaterial: {fileID: 2100000, guid: 9b74d7a6a388be343b6c9cba1d59cc1f, type: 2}
  m_HaloStrength: 0.5
  m_FlareStrength: 1
  m_FlareFadeSpeed: 3
  m_HaloTexture: {fileID: 0}
  m_SpotCookie: {fileID: 10001, guid: 0000000000000000e000000000000000, type: 0}
  m_DefaultReflectionMode: 0
  m_DefaultReflectionResolution: 128
  m_ReflectionBounces: 1
  m_ReflectionIntensity: 1
  m_CustomReflection: {fileID: 0}
  m_Sun: {fileID: 1643588239}
  m_IndirectSpecularColor: {r: 0, g: 0, b: 0, a: 1}
  m_UseRadianceAmbientProbe: 0
--- !u!157 &4
LightmapSettings:
  m_ObjectHideFlags: 0
  serializedVersion: 12
  m_GIWorkflowMode: 0
  m_GISettings:
    serializedVersion: 2
    m_BounceScale: 1
    m_IndirectOutputScale: 1
    m_AlbedoBoost: 1
    m_EnvironmentLightingMode: 0
    m_EnableBakedLightmaps: 0
    m_EnableRealtimeLightmaps: 0
  m_LightmapEditorSettings:
    serializedVersion: 12
    m_Resolution: 2
    m_BakeResolution: 50
    m_AtlasSize: 1024
    m_AO: 0
    m_AOMaxDistance: 1
    m_CompAOExponent: 0
    m_CompAOExponentDirect: 0
    m_ExtractAmbientOcclusion: 0
    m_Padding: 2
    m_LightmapParameters: {fileID: 0}
    m_LightmapsBakeMode: 1
    m_TextureCompression: 0
    m_FinalGather: 0
    m_FinalGatherFiltering: 1
    m_FinalGatherRayCount: 1024
    m_ReflectionCompression: 2
    m_MixedBakeMode: 1
    m_BakeBackend: 0
    m_PVRSampling: 1
    m_PVRDirectSampleCount: 32
    m_PVRSampleCount: 512
    m_PVRBounces: 2
    m_PVREnvironmentSampleCount: 512
    m_PVREnvironmentReferencePointCount: 2048
    m_PVRFilteringMode: 0
    m_PVRDenoiserTypeDirect: 0
    m_PVRDenoiserTypeIndirect: 0
    m_PVRDenoiserTypeAO: 0
    m_PVRFilterTypeDirect: 0
    m_PVRFilterTypeIndirect: 0
    m_PVRFilterTypeAO: 0
    m_PVREnvironmentMIS: 0
    m_PVRCulling: 1
    m_PVRFilteringGaussRadiusDirect: 1
    m_PVRFilteringGaussRadiusIndirect: 5
    m_PVRFilteringGaussRadiusAO: 2
    m_PVRFilteringAtrousPositionSigmaDirect: 0.5
    m_PVRFilteringAtrousPositionSigmaIndirect: 2
    m_PVRFilteringAtrousPositionSigmaAO: 1
    m_ExportTrainingData: 0
    m_TrainingDataDestination: TrainingData
    m_LightProbeSampleCountMultiplier: 4
  m_LightingDataAsset: {fileID: 0}
  m_LightingSettings: {fileID: 4890085278179872738, guid: 98c0dd48880bbc447a260e9892b0053a, type: 2}
--- !u!196 &5
NavMeshSettings:
  serializedVersion: 2
  m_ObjectHideFlags: 0
  m_BuildSettings:
    serializedVersion: 3
    agentTypeID: 0
    agentRadius: 0.5
    agentHeight: 2
    agentSlope: 45
    agentClimb: 0.4
    ledgeDropHeight: 0
    maxJumpAcrossDistance: 0
    minRegionArea: 2
    manualCellSize: 0
    cellSize: 0.16666666
    manualTileSize: 0
    tileSize: 256
    buildHeightMesh: 0
    maxJobWorkers: 0
    preserveTilesOutsideBounds: 0
    debug:
      m_Flags: 0
  m_NavMeshData: {fileID: 0}
--- !u!1001 &22033317
PrefabInstance:
  m_ObjectHideFlags: 0
  serializedVersion: 2
  m_Modification:
    serializedVersion: 3
    m_TransformParent: {fileID: 422136338}
    m_Modifications:
    - target: {fileID: 485988, guid: c7bc3a9d18ad39d43a6927004d0c24d8, type: 3}
      propertyPath: m_RootOrder
      value: 0
      objectReference: {fileID: 0}
    - target: {fileID: 485988, guid: c7bc3a9d18ad39d43a6927004d0c24d8, type: 3}
      propertyPath: m_LocalPosition.x
      value: -89.1336517
      objectReference: {fileID: 0}
    - target: {fileID: 485988, guid: c7bc3a9d18ad39d43a6927004d0c24d8, type: 3}
      propertyPath: m_LocalPosition.y
      value: -0
      objectReference: {fileID: 0}
    - target: {fileID: 485988, guid: c7bc3a9d18ad39d43a6927004d0c24d8, type: 3}
      propertyPath: m_LocalPosition.z
      value: 5.58143044
      objectReference: {fileID: 0}
    - target: {fileID: 485988, guid: c7bc3a9d18ad39d43a6927004d0c24d8, type: 3}
      propertyPath: m_LocalRotation.w
      value: 1
      objectReference: {fileID: 0}
    - target: {fileID: 485988, guid: c7bc3a9d18ad39d43a6927004d0c24d8, type: 3}
      propertyPath: m_LocalRotation.x
      value: 0
      objectReference: {fileID: 0}
    - target: {fileID: 485988, guid: c7bc3a9d18ad39d43a6927004d0c24d8, type: 3}
      propertyPath: m_LocalRotation.y
      value: 0
      objectReference: {fileID: 0}
    - target: {fileID: 485988, guid: c7bc3a9d18ad39d43a6927004d0c24d8, type: 3}
      propertyPath: m_LocalRotation.z
      value: 0
      objectReference: {fileID: 0}
    m_RemovedComponents: []
    m_RemovedGameObjects: []
    m_AddedGameObjects: []
    m_AddedComponents: []
  m_SourcePrefab: {fileID: 100100000, guid: c7bc3a9d18ad39d43a6927004d0c24d8, type: 3}
--- !u!4 &22033318 stripped
Transform:
  m_CorrespondingSourceObject: {fileID: 485988, guid: c7bc3a9d18ad39d43a6927004d0c24d8, type: 3}
  m_PrefabInstance: {fileID: 22033317}
  m_PrefabAsset: {fileID: 0}
--- !u!1 &27833463
GameObject:
  m_ObjectHideFlags: 0
  m_CorrespondingSourceObject: {fileID: 0}
  m_PrefabInstance: {fileID: 0}
  m_PrefabAsset: {fileID: 0}
  serializedVersion: 6
  m_Component:
  - component: {fileID: 27833464}
  m_Layer: 0
  m_Name: Editable_Trees
  m_TagString: Untagged
  m_Icon: {fileID: 0}
  m_NavMeshLayer: 0
  m_StaticEditorFlags: 0
  m_IsActive: 1
--- !u!4 &27833464
Transform:
  m_ObjectHideFlags: 0
  m_CorrespondingSourceObject: {fileID: 0}
  m_PrefabInstance: {fileID: 0}
  m_PrefabAsset: {fileID: 0}
  m_GameObject: {fileID: 27833463}
  serializedVersion: 2
  m_LocalRotation: {x: 0, y: 0, z: 0, w: 1}
  m_LocalPosition: {x: -12.02, y: 0, z: 14.6}
  m_LocalScale: {x: 1, y: 1, z: 1}
  m_ConstrainProportionsScale: 0
  m_Children:
  - {fileID: 1280002011}
  - {fileID: 243356286}
  - {fileID: 1332646099}
  - {fileID: 1287450589}
  - {fileID: 1723823965}
  - {fileID: 1723692053}
  - {fileID: 1039911897}
  - {fileID: 945366804}
  - {fileID: 1814614084}
  - {fileID: 1961794967}
  - {fileID: 1034733122}
  - {fileID: 1136784896}
  m_Father: {fileID: 422136338}
  m_LocalEulerAnglesHint: {x: 0, y: 0, z: 0}
--- !u!1001 &40565096
PrefabInstance:
  m_ObjectHideFlags: 0
  serializedVersion: 2
  m_Modification:
    serializedVersion: 3
    m_TransformParent: {fileID: 422136338}
    m_Modifications:
    - target: {fileID: 479630, guid: ef42109948810e64b94083d7a3c6d924, type: 3}
      propertyPath: m_RootOrder
      value: 1
      objectReference: {fileID: 0}
    - target: {fileID: 479630, guid: ef42109948810e64b94083d7a3c6d924, type: 3}
      propertyPath: m_LocalPosition.x
      value: -103.446152
      objectReference: {fileID: 0}
    - target: {fileID: 479630, guid: ef42109948810e64b94083d7a3c6d924, type: 3}
      propertyPath: m_LocalPosition.y
      value: -0
      objectReference: {fileID: 0}
    - target: {fileID: 479630, guid: ef42109948810e64b94083d7a3c6d924, type: 3}
      propertyPath: m_LocalPosition.z
      value: 17.9800377
      objectReference: {fileID: 0}
    - target: {fileID: 479630, guid: ef42109948810e64b94083d7a3c6d924, type: 3}
      propertyPath: m_LocalRotation.w
      value: 1
      objectReference: {fileID: 0}
    - target: {fileID: 479630, guid: ef42109948810e64b94083d7a3c6d924, type: 3}
      propertyPath: m_LocalRotation.x
      value: 0
      objectReference: {fileID: 0}
    - target: {fileID: 479630, guid: ef42109948810e64b94083d7a3c6d924, type: 3}
      propertyPath: m_LocalRotation.y
      value: 0
      objectReference: {fileID: 0}
    - target: {fileID: 479630, guid: ef42109948810e64b94083d7a3c6d924, type: 3}
      propertyPath: m_LocalRotation.z
      value: 0
      objectReference: {fileID: 0}
    m_RemovedComponents: []
    m_RemovedGameObjects: []
    m_AddedGameObjects: []
    m_AddedComponents: []
  m_SourcePrefab: {fileID: 100100000, guid: ef42109948810e64b94083d7a3c6d924, type: 3}
--- !u!4 &40565097 stripped
Transform:
  m_CorrespondingSourceObject: {fileID: 479630, guid: ef42109948810e64b94083d7a3c6d924, type: 3}
  m_PrefabInstance: {fileID: 40565096}
  m_PrefabAsset: {fileID: 0}
--- !u!1001 &63907937
PrefabInstance:
  m_ObjectHideFlags: 0
  serializedVersion: 2
  m_Modification:
    serializedVersion: 3
    m_TransformParent: {fileID: 27833464}
    m_Modifications:
    - target: {fileID: 400000, guid: e575a0aa287f92f4c8d8b935845f7780, type: 3}
      propertyPath: m_RootOrder
      value: 6
      objectReference: {fileID: 0}
    - target: {fileID: 400000, guid: e575a0aa287f92f4c8d8b935845f7780, type: 3}
      propertyPath: m_LocalPosition.x
      value: 3.77207565
      objectReference: {fileID: 0}
    - target: {fileID: 400000, guid: e575a0aa287f92f4c8d8b935845f7780, type: 3}
      propertyPath: m_LocalPosition.y
      value: 0
      objectReference: {fileID: 0}
    - target: {fileID: 400000, guid: e575a0aa287f92f4c8d8b935845f7780, type: 3}
      propertyPath: m_LocalPosition.z
      value: -2.114748
      objectReference: {fileID: 0}
    - target: {fileID: 400000, guid: e575a0aa287f92f4c8d8b935845f7780, type: 3}
      propertyPath: m_LocalRotation.w
      value: 1
      objectReference: {fileID: 0}
    - target: {fileID: 400000, guid: e575a0aa287f92f4c8d8b935845f7780, type: 3}
      propertyPath: m_LocalRotation.x
      value: 0
      objectReference: {fileID: 0}
    - target: {fileID: 400000, guid: e575a0aa287f92f4c8d8b935845f7780, type: 3}
      propertyPath: m_LocalRotation.y
      value: 0
      objectReference: {fileID: 0}
    - target: {fileID: 400000, guid: e575a0aa287f92f4c8d8b935845f7780, type: 3}
      propertyPath: m_LocalRotation.z
      value: 0
      objectReference: {fileID: 0}
    - target: {fileID: 2300000, guid: e575a0aa287f92f4c8d8b935845f7780, type: 3}
      propertyPath: m_Materials.Array.data[0]
      value: 
      objectReference: {fileID: 2100000, guid: 77efaf0c87af98d44a142f9aaeafc89a, type: 2}
    - target: {fileID: 2300000, guid: e575a0aa287f92f4c8d8b935845f7780, type: 3}
      propertyPath: m_Materials.Array.data[1]
      value: 
      objectReference: {fileID: 2100000, guid: 6f16583b3cb065f48b487527b1fa5f05, type: 2}
    m_RemovedComponents: []
    m_RemovedGameObjects: []
    m_AddedGameObjects: []
    m_AddedComponents: []
  m_SourcePrefab: {fileID: 100100000, guid: e575a0aa287f92f4c8d8b935845f7780, type: 3}
--- !u!1001 &205950102
PrefabInstance:
  m_ObjectHideFlags: 0
  serializedVersion: 2
  m_Modification:
    serializedVersion: 3
    m_TransformParent: {fileID: 882737261}
    m_Modifications:
    - target: {fileID: 465026, guid: 1dd747f6af056e24aa35f4f1bf556d1c, type: 3}
      propertyPath: m_RootOrder
      value: 0
      objectReference: {fileID: 0}
    - target: {fileID: 465026, guid: 1dd747f6af056e24aa35f4f1bf556d1c, type: 3}
      propertyPath: m_LocalPosition.x
      value: -2.56027985
      objectReference: {fileID: 0}
    - target: {fileID: 465026, guid: 1dd747f6af056e24aa35f4f1bf556d1c, type: 3}
      propertyPath: m_LocalPosition.y
      value: 0
      objectReference: {fileID: 0}
    - target: {fileID: 465026, guid: 1dd747f6af056e24aa35f4f1bf556d1c, type: 3}
      propertyPath: m_LocalPosition.z
      value: 11.0427475
      objectReference: {fileID: 0}
    - target: {fileID: 465026, guid: 1dd747f6af056e24aa35f4f1bf556d1c, type: 3}
      propertyPath: m_LocalRotation.w
      value: 1
      objectReference: {fileID: 0}
    - target: {fileID: 465026, guid: 1dd747f6af056e24aa35f4f1bf556d1c, type: 3}
      propertyPath: m_LocalRotation.x
      value: 0
      objectReference: {fileID: 0}
    - target: {fileID: 465026, guid: 1dd747f6af056e24aa35f4f1bf556d1c, type: 3}
      propertyPath: m_LocalRotation.y
      value: 0
      objectReference: {fileID: 0}
    - target: {fileID: 465026, guid: 1dd747f6af056e24aa35f4f1bf556d1c, type: 3}
      propertyPath: m_LocalRotation.z
      value: 0
      objectReference: {fileID: 0}
    m_RemovedComponents: []
    m_RemovedGameObjects: []
    m_AddedGameObjects: []
    m_AddedComponents: []
  m_SourcePrefab: {fileID: 100100000, guid: 1dd747f6af056e24aa35f4f1bf556d1c, type: 3}
--- !u!1001 &216196821
PrefabInstance:
  m_ObjectHideFlags: 0
  serializedVersion: 2
  m_Modification:
    serializedVersion: 3
    m_TransformParent: {fileID: 27833464}
    m_Modifications:
    - target: {fileID: 100000, guid: fa685d05f0ae3cd46b1a25ad845962f6, type: 3}
      propertyPath: m_IsActive
      value: 1
      objectReference: {fileID: 0}
    - target: {fileID: 400000, guid: fa685d05f0ae3cd46b1a25ad845962f6, type: 3}
      propertyPath: m_RootOrder
      value: 4
      objectReference: {fileID: 0}
    - target: {fileID: 400000, guid: fa685d05f0ae3cd46b1a25ad845962f6, type: 3}
      propertyPath: m_LocalPosition.x
      value: -6.39931107
      objectReference: {fileID: 0}
    - target: {fileID: 400000, guid: fa685d05f0ae3cd46b1a25ad845962f6, type: 3}
      propertyPath: m_LocalPosition.y
      value: 0
      objectReference: {fileID: 0}
    - target: {fileID: 400000, guid: fa685d05f0ae3cd46b1a25ad845962f6, type: 3}
      propertyPath: m_LocalPosition.z
      value: -1.44096565
      objectReference: {fileID: 0}
    - target: {fileID: 400000, guid: fa685d05f0ae3cd46b1a25ad845962f6, type: 3}
      propertyPath: m_LocalRotation.w
      value: 1
      objectReference: {fileID: 0}
    - target: {fileID: 400000, guid: fa685d05f0ae3cd46b1a25ad845962f6, type: 3}
      propertyPath: m_LocalRotation.x
      value: 0
      objectReference: {fileID: 0}
    - target: {fileID: 400000, guid: fa685d05f0ae3cd46b1a25ad845962f6, type: 3}
      propertyPath: m_LocalRotation.y
      value: 0
      objectReference: {fileID: 0}
    - target: {fileID: 400000, guid: fa685d05f0ae3cd46b1a25ad845962f6, type: 3}
      propertyPath: m_LocalRotation.z
      value: 0
      objectReference: {fileID: 0}
    - target: {fileID: 2300000, guid: fa685d05f0ae3cd46b1a25ad845962f6, type: 3}
      propertyPath: m_Materials.Array.data[0]
      value: 
      objectReference: {fileID: 2100000, guid: 77efaf0c87af98d44a142f9aaeafc89a, type: 2}
    - target: {fileID: 2300000, guid: fa685d05f0ae3cd46b1a25ad845962f6, type: 3}
      propertyPath: m_Materials.Array.data[1]
      value: 
      objectReference: {fileID: 2100000, guid: 6f16583b3cb065f48b487527b1fa5f05, type: 2}
    m_RemovedComponents: []
    m_RemovedGameObjects: []
    m_AddedGameObjects: []
    m_AddedComponents: []
  m_SourcePrefab: {fileID: 100100000, guid: fa685d05f0ae3cd46b1a25ad845962f6, type: 3}
--- !u!4 &243356286 stripped
Transform:
  m_CorrespondingSourceObject: {fileID: 400000, guid: e318997edd53a1a4c922b2deee669aaa, type: 3}
  m_PrefabInstance: {fileID: 1526282670}
  m_PrefabAsset: {fileID: 0}
--- !u!1001 &265921577
PrefabInstance:
  m_ObjectHideFlags: 0
  serializedVersion: 2
  m_Modification:
    serializedVersion: 3
    m_TransformParent: {fileID: 882737261}
    m_Modifications:
    - target: {fileID: 483002, guid: 3f7ab927998f2f246ae149265ed28407, type: 3}
      propertyPath: m_RootOrder
      value: 1
      objectReference: {fileID: 0}
    - target: {fileID: 483002, guid: 3f7ab927998f2f246ae149265ed28407, type: 3}
      propertyPath: m_LocalPosition.x
      value: -.332927704
      objectReference: {fileID: 0}
    - target: {fileID: 483002, guid: 3f7ab927998f2f246ae149265ed28407, type: 3}
      propertyPath: m_LocalPosition.y
      value: 0
      objectReference: {fileID: 0}
    - target: {fileID: 483002, guid: 3f7ab927998f2f246ae149265ed28407, type: 3}
      propertyPath: m_LocalPosition.z
      value: .866149902
      objectReference: {fileID: 0}
    - target: {fileID: 483002, guid: 3f7ab927998f2f246ae149265ed28407, type: 3}
      propertyPath: m_LocalRotation.w
      value: 1
      objectReference: {fileID: 0}
    - target: {fileID: 483002, guid: 3f7ab927998f2f246ae149265ed28407, type: 3}
      propertyPath: m_LocalRotation.x
      value: 0
      objectReference: {fileID: 0}
    - target: {fileID: 483002, guid: 3f7ab927998f2f246ae149265ed28407, type: 3}
      propertyPath: m_LocalRotation.y
      value: 0
      objectReference: {fileID: 0}
    - target: {fileID: 483002, guid: 3f7ab927998f2f246ae149265ed28407, type: 3}
      propertyPath: m_LocalRotation.z
      value: 0
      objectReference: {fileID: 0}
    m_RemovedComponents: []
    m_RemovedGameObjects: []
    m_AddedGameObjects: []
    m_AddedComponents: []
  m_SourcePrefab: {fileID: 100100000, guid: 3f7ab927998f2f246ae149265ed28407, type: 3}
--- !u!1001 &321415635
PrefabInstance:
  m_ObjectHideFlags: 0
  serializedVersion: 2
  m_Modification:
    serializedVersion: 3
    m_TransformParent: {fileID: 422136338}
    m_Modifications:
    - target: {fileID: 441704, guid: dffcbbf99069f3949a4ee08ce7052432, type: 3}
      propertyPath: m_RootOrder
      value: 2
      objectReference: {fileID: 0}
    - target: {fileID: 441704, guid: dffcbbf99069f3949a4ee08ce7052432, type: 3}
      propertyPath: m_LocalPosition.x
      value: -103.418678
      objectReference: {fileID: 0}
    - target: {fileID: 441704, guid: dffcbbf99069f3949a4ee08ce7052432, type: 3}
      propertyPath: m_LocalPosition.y
      value: -0
      objectReference: {fileID: 0}
    - target: {fileID: 441704, guid: dffcbbf99069f3949a4ee08ce7052432, type: 3}
      propertyPath: m_LocalPosition.z
      value: 10.4588184
      objectReference: {fileID: 0}
    - target: {fileID: 441704, guid: dffcbbf99069f3949a4ee08ce7052432, type: 3}
      propertyPath: m_LocalRotation.w
      value: 1
      objectReference: {fileID: 0}
    - target: {fileID: 441704, guid: dffcbbf99069f3949a4ee08ce7052432, type: 3}
      propertyPath: m_LocalRotation.x
      value: 0
      objectReference: {fileID: 0}
    - target: {fileID: 441704, guid: dffcbbf99069f3949a4ee08ce7052432, type: 3}
      propertyPath: m_LocalRotation.y
      value: 0
      objectReference: {fileID: 0}
    - target: {fileID: 441704, guid: dffcbbf99069f3949a4ee08ce7052432, type: 3}
      propertyPath: m_LocalRotation.z
      value: 0
      objectReference: {fileID: 0}
    m_RemovedComponents: []
    m_RemovedGameObjects: []
    m_AddedGameObjects: []
    m_AddedComponents: []
  m_SourcePrefab: {fileID: 100100000, guid: dffcbbf99069f3949a4ee08ce7052432, type: 3}
--- !u!4 &321415636 stripped
Transform:
  m_CorrespondingSourceObject: {fileID: 441704, guid: dffcbbf99069f3949a4ee08ce7052432, type: 3}
  m_PrefabInstance: {fileID: 321415635}
  m_PrefabAsset: {fileID: 0}
--- !u!1001 &394889759
PrefabInstance:
  m_ObjectHideFlags: 0
  serializedVersion: 2
  m_Modification:
    serializedVersion: 3
    m_TransformParent: {fileID: 27833464}
    m_Modifications:
    - target: {fileID: 100000, guid: 9103cb21a8485ed4aafddc0a27c9d9a1, type: 3}
      propertyPath: m_IsActive
      value: 1
      objectReference: {fileID: 0}
    - target: {fileID: 400000, guid: 9103cb21a8485ed4aafddc0a27c9d9a1, type: 3}
      propertyPath: m_RootOrder
      value: 10
      objectReference: {fileID: 0}
    - target: {fileID: 400000, guid: 9103cb21a8485ed4aafddc0a27c9d9a1, type: 3}
      propertyPath: m_LocalPosition.x
      value: 25.1480522
      objectReference: {fileID: 0}
    - target: {fileID: 400000, guid: 9103cb21a8485ed4aafddc0a27c9d9a1, type: 3}
      propertyPath: m_LocalPosition.y
      value: 0
      objectReference: {fileID: 0}
    - target: {fileID: 400000, guid: 9103cb21a8485ed4aafddc0a27c9d9a1, type: 3}
      propertyPath: m_LocalPosition.z
      value: -2.66316414
      objectReference: {fileID: 0}
    - target: {fileID: 400000, guid: 9103cb21a8485ed4aafddc0a27c9d9a1, type: 3}
      propertyPath: m_LocalRotation.w
      value: 1
      objectReference: {fileID: 0}
    - target: {fileID: 400000, guid: 9103cb21a8485ed4aafddc0a27c9d9a1, type: 3}
      propertyPath: m_LocalRotation.x
      value: 0
      objectReference: {fileID: 0}
    - target: {fileID: 400000, guid: 9103cb21a8485ed4aafddc0a27c9d9a1, type: 3}
      propertyPath: m_LocalRotation.y
      value: 0
      objectReference: {fileID: 0}
    - target: {fileID: 400000, guid: 9103cb21a8485ed4aafddc0a27c9d9a1, type: 3}
      propertyPath: m_LocalRotation.z
      value: 0
      objectReference: {fileID: 0}
    - target: {fileID: 2300000, guid: 9103cb21a8485ed4aafddc0a27c9d9a1, type: 3}
      propertyPath: m_Materials.Array.data[0]
      value: 
      objectReference: {fileID: 2100000, guid: 77efaf0c87af98d44a142f9aaeafc89a, type: 2}
    - target: {fileID: 2300000, guid: 9103cb21a8485ed4aafddc0a27c9d9a1, type: 3}
      propertyPath: m_Materials.Array.data[1]
      value: 
      objectReference: {fileID: 2100000, guid: 6f16583b3cb065f48b487527b1fa5f05, type: 2}
    m_RemovedComponents: []
    m_RemovedGameObjects: []
    m_AddedGameObjects: []
    m_AddedComponents: []
  m_SourcePrefab: {fileID: 100100000, guid: 9103cb21a8485ed4aafddc0a27c9d9a1, type: 3}
--- !u!1001 &398429871
PrefabInstance:
  m_ObjectHideFlags: 0
  serializedVersion: 2
  m_Modification:
    serializedVersion: 3
    m_TransformParent: {fileID: 27833464}
    m_Modifications:
    - target: {fileID: 400000, guid: 744e5ce69c552f04daa65190ed02187e, type: 3}
      propertyPath: m_RootOrder
      value: 9
      objectReference: {fileID: 0}
    - target: {fileID: 400000, guid: 744e5ce69c552f04daa65190ed02187e, type: 3}
      propertyPath: m_LocalPosition.x
      value: 21.1453056
      objectReference: {fileID: 0}
    - target: {fileID: 400000, guid: 744e5ce69c552f04daa65190ed02187e, type: 3}
      propertyPath: m_LocalPosition.y
      value: 0
      objectReference: {fileID: 0}
    - target: {fileID: 400000, guid: 744e5ce69c552f04daa65190ed02187e, type: 3}
      propertyPath: m_LocalPosition.z
      value: -2.3025074
      objectReference: {fileID: 0}
    - target: {fileID: 400000, guid: 744e5ce69c552f04daa65190ed02187e, type: 3}
      propertyPath: m_LocalRotation.w
      value: 1
      objectReference: {fileID: 0}
    - target: {fileID: 400000, guid: 744e5ce69c552f04daa65190ed02187e, type: 3}
      propertyPath: m_LocalRotation.x
      value: 0
      objectReference: {fileID: 0}
    - target: {fileID: 400000, guid: 744e5ce69c552f04daa65190ed02187e, type: 3}
      propertyPath: m_LocalRotation.y
      value: 0
      objectReference: {fileID: 0}
    - target: {fileID: 400000, guid: 744e5ce69c552f04daa65190ed02187e, type: 3}
      propertyPath: m_LocalRotation.z
      value: 0
      objectReference: {fileID: 0}
    - target: {fileID: 2300000, guid: 744e5ce69c552f04daa65190ed02187e, type: 3}
      propertyPath: m_Materials.Array.data[0]
      value: 
      objectReference: {fileID: 2100000, guid: 77efaf0c87af98d44a142f9aaeafc89a, type: 2}
    - target: {fileID: 2300000, guid: 744e5ce69c552f04daa65190ed02187e, type: 3}
      propertyPath: m_Materials.Array.data[1]
      value: 
      objectReference: {fileID: 2100000, guid: 6f16583b3cb065f48b487527b1fa5f05, type: 2}
    m_RemovedComponents: []
    m_RemovedGameObjects: []
    m_AddedGameObjects: []
    m_AddedComponents: []
  m_SourcePrefab: {fileID: 100100000, guid: 744e5ce69c552f04daa65190ed02187e, type: 3}
--- !u!1 &422136337
GameObject:
  m_ObjectHideFlags: 0
  m_CorrespondingSourceObject: {fileID: 0}
  m_PrefabInstance: {fileID: 0}
  m_PrefabAsset: {fileID: 0}
  serializedVersion: 6
  m_Component:
  - component: {fileID: 422136338}
  m_Layer: 0
  m_Name: Prefabs
  m_TagString: Untagged
  m_Icon: {fileID: 0}
  m_NavMeshLayer: 0
  m_StaticEditorFlags: 0
  m_IsActive: 1
--- !u!4 &422136338
Transform:
  m_ObjectHideFlags: 0
  m_CorrespondingSourceObject: {fileID: 0}
  m_PrefabInstance: {fileID: 0}
  m_PrefabAsset: {fileID: 0}
  m_GameObject: {fileID: 422136337}
  serializedVersion: 2
  m_LocalRotation: {x: 0, y: 0, z: 0, w: 1}
  m_LocalPosition: {x: 0, y: 0, z: 0}
  m_LocalScale: {x: 1, y: 1, z: 1}
  m_ConstrainProportionsScale: 0
  m_Children:
  - {fileID: 22033318}
  - {fileID: 40565097}
  - {fileID: 321415636}
  - {fileID: 487125057}
  - {fileID: 491074903}
  - {fileID: 1020037711}
  - {fileID: 1380420775}
  - {fileID: 1713171518}
  - {fileID: 1747051500}
  - {fileID: 2048700230}
  - {fileID: 2073184747}
  - {fileID: 1295934660}
  - {fileID: 882737261}
  - {fileID: 27833464}
  m_Father: {fileID: 0}
  m_LocalEulerAnglesHint: {x: 0, y: 0, z: 0}
--- !u!4 &467644526 stripped
Transform:
  m_CorrespondingSourceObject: {fileID: 416928, guid: c0797f06b3843bd479cff53d3ec73eef, type: 3}
  m_PrefabInstance: {fileID: 1188557865}
  m_PrefabAsset: {fileID: 0}
--- !u!1001 &487125056
PrefabInstance:
  m_ObjectHideFlags: 0
  serializedVersion: 2
  m_Modification:
    serializedVersion: 3
    m_TransformParent: {fileID: 422136338}
    m_Modifications:
    - target: {fileID: 482492, guid: cf3fc3bb61400ef4c85d231500be1ebb, type: 3}
      propertyPath: m_RootOrder
      value: 3
      objectReference: {fileID: 0}
    - target: {fileID: 482492, guid: cf3fc3bb61400ef4c85d231500be1ebb, type: 3}
      propertyPath: m_LocalPosition.x
      value: -101.760002
      objectReference: {fileID: 0}
    - target: {fileID: 482492, guid: cf3fc3bb61400ef4c85d231500be1ebb, type: 3}
      propertyPath: m_LocalPosition.y
      value: 0
      objectReference: {fileID: 0}
    - target: {fileID: 482492, guid: cf3fc3bb61400ef4c85d231500be1ebb, type: 3}
      propertyPath: m_LocalPosition.z
      value: 7.21999979
      objectReference: {fileID: 0}
    - target: {fileID: 482492, guid: cf3fc3bb61400ef4c85d231500be1ebb, type: 3}
      propertyPath: m_LocalRotation.w
      value: 1
      objectReference: {fileID: 0}
    - target: {fileID: 482492, guid: cf3fc3bb61400ef4c85d231500be1ebb, type: 3}
      propertyPath: m_LocalRotation.x
      value: 0
      objectReference: {fileID: 0}
    - target: {fileID: 482492, guid: cf3fc3bb61400ef4c85d231500be1ebb, type: 3}
      propertyPath: m_LocalRotation.y
      value: 0
      objectReference: {fileID: 0}
    - target: {fileID: 482492, guid: cf3fc3bb61400ef4c85d231500be1ebb, type: 3}
      propertyPath: m_LocalRotation.z
      value: 0
      objectReference: {fileID: 0}
    m_RemovedComponents: []
    m_RemovedGameObjects: []
    m_AddedGameObjects: []
    m_AddedComponents: []
  m_SourcePrefab: {fileID: 100100000, guid: cf3fc3bb61400ef4c85d231500be1ebb, type: 3}
--- !u!4 &487125057 stripped
Transform:
  m_CorrespondingSourceObject: {fileID: 482492, guid: cf3fc3bb61400ef4c85d231500be1ebb, type: 3}
  m_PrefabInstance: {fileID: 487125056}
  m_PrefabAsset: {fileID: 0}
--- !u!1001 &491074902
PrefabInstance:
  m_ObjectHideFlags: 0
  serializedVersion: 2
  m_Modification:
    serializedVersion: 3
    m_TransformParent: {fileID: 422136338}
    m_Modifications:
    - target: {fileID: 431770, guid: fa0b15e3267056f4da7aa5d4d7bff7de, type: 3}
      propertyPath: m_RootOrder
      value: 4
      objectReference: {fileID: 0}
    - target: {fileID: 431770, guid: fa0b15e3267056f4da7aa5d4d7bff7de, type: 3}
      propertyPath: m_LocalPosition.x
      value: -100.155647
      objectReference: {fileID: 0}
    - target: {fileID: 431770, guid: fa0b15e3267056f4da7aa5d4d7bff7de, type: 3}
      propertyPath: m_LocalPosition.y
      value: -0
      objectReference: {fileID: 0}
    - target: {fileID: 431770, guid: fa0b15e3267056f4da7aa5d4d7bff7de, type: 3}
      propertyPath: m_LocalPosition.z
      value: 10.3677206
      objectReference: {fileID: 0}
    - target: {fileID: 431770, guid: fa0b15e3267056f4da7aa5d4d7bff7de, type: 3}
      propertyPath: m_LocalRotation.w
      value: 1
      objectReference: {fileID: 0}
    - target: {fileID: 431770, guid: fa0b15e3267056f4da7aa5d4d7bff7de, type: 3}
      propertyPath: m_LocalRotation.x
      value: 0
      objectReference: {fileID: 0}
    - target: {fileID: 431770, guid: fa0b15e3267056f4da7aa5d4d7bff7de, type: 3}
      propertyPath: m_LocalRotation.y
      value: 0
      objectReference: {fileID: 0}
    - target: {fileID: 431770, guid: fa0b15e3267056f4da7aa5d4d7bff7de, type: 3}
      propertyPath: m_LocalRotation.z
      value: 0
      objectReference: {fileID: 0}
    m_RemovedComponents: []
    m_RemovedGameObjects: []
    m_AddedGameObjects: []
    m_AddedComponents: []
  m_SourcePrefab: {fileID: 100100000, guid: fa0b15e3267056f4da7aa5d4d7bff7de, type: 3}
--- !u!4 &491074903 stripped
Transform:
  m_CorrespondingSourceObject: {fileID: 431770, guid: fa0b15e3267056f4da7aa5d4d7bff7de, type: 3}
  m_PrefabInstance: {fileID: 491074902}
  m_PrefabAsset: {fileID: 0}
--- !u!4 &544041555 stripped
Transform:
  m_CorrespondingSourceObject: {fileID: 410780, guid: eec387462a1a9464797ef20669c5ed46, type: 3}
  m_PrefabInstance: {fileID: 1311829757}
  m_PrefabAsset: {fileID: 0}
--- !u!4 &730276754 stripped
Transform:
  m_CorrespondingSourceObject: {fileID: 465026, guid: 1dd747f6af056e24aa35f4f1bf556d1c, type: 3}
  m_PrefabInstance: {fileID: 205950102}
  m_PrefabAsset: {fileID: 0}
--- !u!1001 &782631313
PrefabInstance:
  m_ObjectHideFlags: 0
  serializedVersion: 2
  m_Modification:
    serializedVersion: 3
    m_TransformParent: {fileID: 882737261}
    m_Modifications:
    - target: {fileID: 487510, guid: cd2001d15a8eb6d499482429c97830fd, type: 3}
      propertyPath: m_RootOrder
      value: 2
      objectReference: {fileID: 0}
    - target: {fileID: 487510, guid: cd2001d15a8eb6d499482429c97830fd, type: 3}
      propertyPath: m_LocalPosition.x
      value: 2.65924835
      objectReference: {fileID: 0}
    - target: {fileID: 487510, guid: cd2001d15a8eb6d499482429c97830fd, type: 3}
      propertyPath: m_LocalPosition.y
      value: 0
      objectReference: {fileID: 0}
    - target: {fileID: 487510, guid: cd2001d15a8eb6d499482429c97830fd, type: 3}
      propertyPath: m_LocalPosition.z
      value: 9.67932892
      objectReference: {fileID: 0}
    - target: {fileID: 487510, guid: cd2001d15a8eb6d499482429c97830fd, type: 3}
      propertyPath: m_LocalRotation.w
      value: 1
      objectReference: {fileID: 0}
    - target: {fileID: 487510, guid: cd2001d15a8eb6d499482429c97830fd, type: 3}
      propertyPath: m_LocalRotation.x
      value: 0
      objectReference: {fileID: 0}
    - target: {fileID: 487510, guid: cd2001d15a8eb6d499482429c97830fd, type: 3}
      propertyPath: m_LocalRotation.y
      value: 0
      objectReference: {fileID: 0}
    - target: {fileID: 487510, guid: cd2001d15a8eb6d499482429c97830fd, type: 3}
      propertyPath: m_LocalRotation.z
      value: 0
      objectReference: {fileID: 0}
    m_RemovedComponents: []
    m_RemovedGameObjects: []
    m_AddedGameObjects: []
    m_AddedComponents: []
  m_SourcePrefab: {fileID: 100100000, guid: cd2001d15a8eb6d499482429c97830fd, type: 3}
--- !u!4 &823900086 stripped
Transform:
  m_CorrespondingSourceObject: {fileID: 459458, guid: 2c6f9b7f465b34e4c87e12adf663b39f, type: 3}
  m_PrefabInstance: {fileID: 1898682358}
  m_PrefabAsset: {fileID: 0}
--- !u!1001 &857046438
PrefabInstance:
  m_ObjectHideFlags: 0
  serializedVersion: 2
  m_Modification:
    serializedVersion: 3
    m_TransformParent: {fileID: 0}
    m_Modifications:
    - target: {fileID: 100006, guid: a5180b78e14595545b205f7fe0e69f43, type: 3}
      propertyPath: m_IsActive
      value: 1
      objectReference: {fileID: 0}
    - target: {fileID: 400006, guid: a5180b78e14595545b205f7fe0e69f43, type: 3}
      propertyPath: m_RootOrder
      value: 0
      objectReference: {fileID: 0}
    - target: {fileID: 400006, guid: a5180b78e14595545b205f7fe0e69f43, type: 3}
      propertyPath: m_LocalPosition.x
      value: 1029.67151
      objectReference: {fileID: 0}
    - target: {fileID: 400006, guid: a5180b78e14595545b205f7fe0e69f43, type: 3}
      propertyPath: m_LocalPosition.y
      value: 149.429871
      objectReference: {fileID: 0}
    - target: {fileID: 400006, guid: a5180b78e14595545b205f7fe0e69f43, type: 3}
      propertyPath: m_LocalPosition.z
      value: 1041.25989
      objectReference: {fileID: 0}
    - target: {fileID: 400006, guid: a5180b78e14595545b205f7fe0e69f43, type: 3}
      propertyPath: m_LocalRotation.w
      value: .982139766
      objectReference: {fileID: 0}
    - target: {fileID: 400006, guid: a5180b78e14595545b205f7fe0e69f43, type: 3}
      propertyPath: m_LocalRotation.x
      value: 0
      objectReference: {fileID: 0}
    - target: {fileID: 400006, guid: a5180b78e14595545b205f7fe0e69f43, type: 3}
      propertyPath: m_LocalRotation.y
      value: -.188152745
      objectReference: {fileID: 0}
    - target: {fileID: 400006, guid: a5180b78e14595545b205f7fe0e69f43, type: 3}
      propertyPath: m_LocalRotation.z
      value: 0
      objectReference: {fileID: 0}
    m_RemovedComponents: []
    m_RemovedGameObjects: []
    m_AddedGameObjects: []
    m_AddedComponents: []
  m_SourcePrefab: {fileID: 100100000, guid: a5180b78e14595545b205f7fe0e69f43, type: 3}
--- !u!1 &882737260
GameObject:
  m_ObjectHideFlags: 0
  m_CorrespondingSourceObject: {fileID: 0}
  m_PrefabInstance: {fileID: 0}
  m_PrefabAsset: {fileID: 0}
  serializedVersion: 6
  m_Component:
  - component: {fileID: 882737261}
  m_Layer: 0
  m_Name: AFS_Trees
  m_TagString: Untagged
  m_Icon: {fileID: 0}
  m_NavMeshLayer: 0
  m_StaticEditorFlags: 0
  m_IsActive: 1
--- !u!4 &882737261
Transform:
  m_ObjectHideFlags: 0
  m_CorrespondingSourceObject: {fileID: 0}
  m_PrefabInstance: {fileID: 0}
  m_PrefabAsset: {fileID: 0}
  m_GameObject: {fileID: 882737260}
  serializedVersion: 2
  m_LocalRotation: {x: 0, y: 0, z: 0, w: 1}
  m_LocalPosition: {x: -26.9, y: 0, z: -78.1}
  m_LocalScale: {x: 1, y: 1, z: 1}
  m_ConstrainProportionsScale: 0
  m_Children:
  - {fileID: 730276754}
  - {fileID: 886733062}
  - {fileID: 1222319154}
  - {fileID: 467644526}
  - {fileID: 1971554043}
  - {fileID: 544041555}
  - {fileID: 1339621629}
  - {fileID: 1614710228}
  - {fileID: 823900086}
  - {fileID: 1990917763}
  - {fileID: 2080579016}
  - {fileID: 2091131064}
  m_Father: {fileID: 422136338}
  m_LocalEulerAnglesHint: {x: 0, y: 0, z: 0}
--- !u!4 &886733062 stripped
Transform:
  m_CorrespondingSourceObject: {fileID: 483002, guid: 3f7ab927998f2f246ae149265ed28407, type: 3}
  m_PrefabInstance: {fileID: 265921577}
  m_PrefabAsset: {fileID: 0}
--- !u!4 &945366804 stripped
Transform:
  m_CorrespondingSourceObject: {fileID: 400000, guid: f84c94350c56b594082c07f8ef831fbe, type: 3}
  m_PrefabInstance: {fileID: 1481476101}
  m_PrefabAsset: {fileID: 0}
--- !u!1001 &953895660
PrefabInstance:
  m_ObjectHideFlags: 0
  serializedVersion: 2
  m_Modification:
    serializedVersion: 3
    m_TransformParent: {fileID: 27833464}
    m_Modifications:
    - target: {fileID: 100000, guid: af8f633b22ea4eb42a5f54897ae30dee, type: 3}
      propertyPath: m_IsActive
      value: 1
      objectReference: {fileID: 0}
    - target: {fileID: 400000, guid: af8f633b22ea4eb42a5f54897ae30dee, type: 3}
      propertyPath: m_RootOrder
      value: 3
      objectReference: {fileID: 0}
    - target: {fileID: 400000, guid: af8f633b22ea4eb42a5f54897ae30dee, type: 3}
      propertyPath: m_LocalPosition.x
      value: -9.79210281
      objectReference: {fileID: 0}
    - target: {fileID: 400000, guid: af8f633b22ea4eb42a5f54897ae30dee, type: 3}
      propertyPath: m_LocalPosition.y
      value: 0
      objectReference: {fileID: 0}
    - target: {fileID: 400000, guid: af8f633b22ea4eb42a5f54897ae30dee, type: 3}
      propertyPath: m_LocalPosition.z
      value: -.767000198
      objectReference: {fileID: 0}
    - target: {fileID: 400000, guid: af8f633b22ea4eb42a5f54897ae30dee, type: 3}
      propertyPath: m_LocalRotation.w
      value: 1
      objectReference: {fileID: 0}
    - target: {fileID: 400000, guid: af8f633b22ea4eb42a5f54897ae30dee, type: 3}
      propertyPath: m_LocalRotation.x
      value: 0
      objectReference: {fileID: 0}
    - target: {fileID: 400000, guid: af8f633b22ea4eb42a5f54897ae30dee, type: 3}
      propertyPath: m_LocalRotation.y
      value: 0
      objectReference: {fileID: 0}
    - target: {fileID: 400000, guid: af8f633b22ea4eb42a5f54897ae30dee, type: 3}
      propertyPath: m_LocalRotation.z
      value: 0
      objectReference: {fileID: 0}
    - target: {fileID: 2300000, guid: af8f633b22ea4eb42a5f54897ae30dee, type: 3}
      propertyPath: m_Materials.Array.data[0]
      value: 
      objectReference: {fileID: 2100000, guid: 77efaf0c87af98d44a142f9aaeafc89a, type: 2}
    - target: {fileID: 2300000, guid: af8f633b22ea4eb42a5f54897ae30dee, type: 3}
      propertyPath: m_Materials.Array.data[1]
      value: 
      objectReference: {fileID: 2100000, guid: 6f16583b3cb065f48b487527b1fa5f05, type: 2}
    m_RemovedComponents: []
    m_RemovedGameObjects: []
    m_AddedGameObjects: []
    m_AddedComponents: []
  m_SourcePrefab: {fileID: 100100000, guid: af8f633b22ea4eb42a5f54897ae30dee, type: 3}
--- !u!1001 &1020037710
PrefabInstance:
  m_ObjectHideFlags: 0
  serializedVersion: 2
  m_Modification:
    serializedVersion: 3
    m_TransformParent: {fileID: 422136338}
    m_Modifications:
    - target: {fileID: 401026, guid: 7b8c7a0967ea29b4a8313a1ba3ca0bde, type: 3}
      propertyPath: m_RootOrder
      value: 5
      objectReference: {fileID: 0}
    - target: {fileID: 401026, guid: 7b8c7a0967ea29b4a8313a1ba3ca0bde, type: 3}
      propertyPath: m_LocalPosition.x
      value: -102.612991
      objectReference: {fileID: 0}
    - target: {fileID: 401026, guid: 7b8c7a0967ea29b4a8313a1ba3ca0bde, type: 3}
      propertyPath: m_LocalPosition.y
      value: -0
      objectReference: {fileID: 0}
    - target: {fileID: 401026, guid: 7b8c7a0967ea29b4a8313a1ba3ca0bde, type: 3}
      propertyPath: m_LocalPosition.z
      value: 2.62933946
      objectReference: {fileID: 0}
    - target: {fileID: 401026, guid: 7b8c7a0967ea29b4a8313a1ba3ca0bde, type: 3}
      propertyPath: m_LocalRotation.w
      value: 1
      objectReference: {fileID: 0}
    - target: {fileID: 401026, guid: 7b8c7a0967ea29b4a8313a1ba3ca0bde, type: 3}
      propertyPath: m_LocalRotation.x
      value: 0
      objectReference: {fileID: 0}
    - target: {fileID: 401026, guid: 7b8c7a0967ea29b4a8313a1ba3ca0bde, type: 3}
      propertyPath: m_LocalRotation.y
      value: 0
      objectReference: {fileID: 0}
    - target: {fileID: 401026, guid: 7b8c7a0967ea29b4a8313a1ba3ca0bde, type: 3}
      propertyPath: m_LocalRotation.z
      value: 0
      objectReference: {fileID: 0}
    m_RemovedComponents: []
    m_RemovedGameObjects: []
    m_AddedGameObjects: []
    m_AddedComponents: []
  m_SourcePrefab: {fileID: 100100000, guid: 7b8c7a0967ea29b4a8313a1ba3ca0bde, type: 3}
--- !u!4 &1020037711 stripped
Transform:
  m_CorrespondingSourceObject: {fileID: 401026, guid: 7b8c7a0967ea29b4a8313a1ba3ca0bde, type: 3}
  m_PrefabInstance: {fileID: 1020037710}
  m_PrefabAsset: {fileID: 0}
--- !u!4 &1034733122 stripped
Transform:
  m_CorrespondingSourceObject: {fileID: 400000, guid: 9103cb21a8485ed4aafddc0a27c9d9a1, type: 3}
  m_PrefabInstance: {fileID: 394889759}
  m_PrefabAsset: {fileID: 0}
--- !u!4 &1039911897 stripped
Transform:
  m_CorrespondingSourceObject: {fileID: 400000, guid: e575a0aa287f92f4c8d8b935845f7780, type: 3}
  m_PrefabInstance: {fileID: 63907937}
  m_PrefabAsset: {fileID: 0}
--- !u!1001 &1094101098
PrefabInstance:
  m_ObjectHideFlags: 0
  serializedVersion: 2
  m_Modification:
    serializedVersion: 3
    m_TransformParent: {fileID: 27833464}
    m_Modifications:
    - target: {fileID: 400000, guid: 84f582d01d32d3b42907ae29f9cc588e, type: 3}
      propertyPath: m_RootOrder
      value: 0
      objectReference: {fileID: 0}
    - target: {fileID: 400000, guid: 84f582d01d32d3b42907ae29f9cc588e, type: 3}
      propertyPath: m_LocalPosition.x
      value: -20.9112282
      objectReference: {fileID: 0}
    - target: {fileID: 400000, guid: 84f582d01d32d3b42907ae29f9cc588e, type: 3}
      propertyPath: m_LocalPosition.y
      value: 0
      objectReference: {fileID: 0}
    - target: {fileID: 400000, guid: 84f582d01d32d3b42907ae29f9cc588e, type: 3}
      propertyPath: m_LocalPosition.z
      value: -1.15191841
      objectReference: {fileID: 0}
    - target: {fileID: 400000, guid: 84f582d01d32d3b42907ae29f9cc588e, type: 3}
      propertyPath: m_LocalRotation.w
      value: 1
      objectReference: {fileID: 0}
    - target: {fileID: 400000, guid: 84f582d01d32d3b42907ae29f9cc588e, type: 3}
      propertyPath: m_LocalRotation.x
      value: 0
      objectReference: {fileID: 0}
    - target: {fileID: 400000, guid: 84f582d01d32d3b42907ae29f9cc588e, type: 3}
      propertyPath: m_LocalRotation.y
      value: 0
      objectReference: {fileID: 0}
    - target: {fileID: 400000, guid: 84f582d01d32d3b42907ae29f9cc588e, type: 3}
      propertyPath: m_LocalRotation.z
      value: 0
      objectReference: {fileID: 0}
    - target: {fileID: 2300000, guid: 84f582d01d32d3b42907ae29f9cc588e, type: 3}
      propertyPath: m_Materials.Array.data[0]
      value: 
      objectReference: {fileID: 2100000, guid: 77efaf0c87af98d44a142f9aaeafc89a, type: 2}
    - target: {fileID: 2300000, guid: 84f582d01d32d3b42907ae29f9cc588e, type: 3}
      propertyPath: m_Materials.Array.data[1]
      value: 
      objectReference: {fileID: 2100000, guid: 6f16583b3cb065f48b487527b1fa5f05, type: 2}
    m_RemovedComponents: []
    m_RemovedGameObjects: []
    m_AddedGameObjects: []
    m_AddedComponents: []
  m_SourcePrefab: {fileID: 100100000, guid: 84f582d01d32d3b42907ae29f9cc588e, type: 3}
--- !u!1001 &1110303158
PrefabInstance:
  m_ObjectHideFlags: 0
  serializedVersion: 2
  m_Modification:
    serializedVersion: 3
    m_TransformParent: {fileID: 27833464}
    m_Modifications:
    - target: {fileID: 400000, guid: c6a0b547476f98441ab0a1e6338101b1, type: 3}
      propertyPath: m_RootOrder
      value: 2
      objectReference: {fileID: 0}
    - target: {fileID: 400000, guid: c6a0b547476f98441ab0a1e6338101b1, type: 3}
      propertyPath: m_LocalPosition.x
      value: -13.2951241
      objectReference: {fileID: 0}
    - target: {fileID: 400000, guid: c6a0b547476f98441ab0a1e6338101b1, type: 3}
      propertyPath: m_LocalPosition.y
      value: 0
      objectReference: {fileID: 0}
    - target: {fileID: 400000, guid: c6a0b547476f98441ab0a1e6338101b1, type: 3}
      propertyPath: m_LocalPosition.z
      value: -.733064651
      objectReference: {fileID: 0}
    - target: {fileID: 400000, guid: c6a0b547476f98441ab0a1e6338101b1, type: 3}
      propertyPath: m_LocalRotation.w
      value: 1
      objectReference: {fileID: 0}
    - target: {fileID: 400000, guid: c6a0b547476f98441ab0a1e6338101b1, type: 3}
      propertyPath: m_LocalRotation.x
      value: 0
      objectReference: {fileID: 0}
    - target: {fileID: 400000, guid: c6a0b547476f98441ab0a1e6338101b1, type: 3}
      propertyPath: m_LocalRotation.y
      value: 0
      objectReference: {fileID: 0}
    - target: {fileID: 400000, guid: c6a0b547476f98441ab0a1e6338101b1, type: 3}
      propertyPath: m_LocalRotation.z
      value: 0
      objectReference: {fileID: 0}
    - target: {fileID: 2300000, guid: c6a0b547476f98441ab0a1e6338101b1, type: 3}
      propertyPath: m_Materials.Array.data[0]
      value: 
      objectReference: {fileID: 2100000, guid: 77efaf0c87af98d44a142f9aaeafc89a, type: 2}
    - target: {fileID: 2300000, guid: c6a0b547476f98441ab0a1e6338101b1, type: 3}
      propertyPath: m_Materials.Array.data[1]
      value: 
      objectReference: {fileID: 2100000, guid: 6f16583b3cb065f48b487527b1fa5f05, type: 2}
    m_RemovedComponents: []
    m_RemovedGameObjects: []
    m_AddedGameObjects: []
    m_AddedComponents: []
  m_SourcePrefab: {fileID: 100100000, guid: c6a0b547476f98441ab0a1e6338101b1, type: 3}
--- !u!4 &1136784896 stripped
Transform:
  m_CorrespondingSourceObject: {fileID: 400000, guid: 32284b0ddf7eba2469cec0d0f6006f26, type: 3}
  m_PrefabInstance: {fileID: 1217065344}
  m_PrefabAsset: {fileID: 0}
--- !u!1 &1154073270
GameObject:
  m_ObjectHideFlags: 0
  m_CorrespondingSourceObject: {fileID: 0}
  m_PrefabInstance: {fileID: 0}
  m_PrefabAsset: {fileID: 0}
  serializedVersion: 6
  m_Component:
  - component: {fileID: 1154073272}
  m_Layer: 0
  m_Name: GUI Text
  m_TagString: Untagged
  m_Icon: {fileID: 0}
  m_NavMeshLayer: 0
  m_StaticEditorFlags: 0
  m_IsActive: 1
--- !u!4 &1154073272
Transform:
  m_ObjectHideFlags: 0
  m_CorrespondingSourceObject: {fileID: 0}
  m_PrefabInstance: {fileID: 0}
  m_PrefabAsset: {fileID: 0}
  m_GameObject: {fileID: 1154073270}
  serializedVersion: 2
  m_LocalRotation: {x: 0, y: 0, z: 0, w: 1}
  m_LocalPosition: {x: 0.02, y: 0.95, z: 0}
  m_LocalScale: {x: 1, y: 1, z: 1}
  m_ConstrainProportionsScale: 0
  m_Children: []
  m_Father: {fileID: 0}
  m_LocalEulerAnglesHint: {x: 0, y: 0, z: 0}
--- !u!1001 &1188557865
PrefabInstance:
  m_ObjectHideFlags: 0
  serializedVersion: 2
  m_Modification:
    serializedVersion: 3
    m_TransformParent: {fileID: 882737261}
    m_Modifications:
    - target: {fileID: 416928, guid: c0797f06b3843bd479cff53d3ec73eef, type: 3}
      propertyPath: m_RootOrder
      value: 3
      objectReference: {fileID: 0}
    - target: {fileID: 416928, guid: c0797f06b3843bd479cff53d3ec73eef, type: 3}
      propertyPath: m_LocalPosition.x
      value: 2.85804176
      objectReference: {fileID: 0}
    - target: {fileID: 416928, guid: c0797f06b3843bd479cff53d3ec73eef, type: 3}
      propertyPath: m_LocalPosition.y
      value: 0
      objectReference: {fileID: 0}
    - target: {fileID: 416928, guid: c0797f06b3843bd479cff53d3ec73eef, type: 3}
      propertyPath: m_LocalPosition.z
      value: 1.73067474
      objectReference: {fileID: 0}
    - target: {fileID: 416928, guid: c0797f06b3843bd479cff53d3ec73eef, type: 3}
      propertyPath: m_LocalRotation.w
      value: 1
      objectReference: {fileID: 0}
    - target: {fileID: 416928, guid: c0797f06b3843bd479cff53d3ec73eef, type: 3}
      propertyPath: m_LocalRotation.x
      value: 0
      objectReference: {fileID: 0}
    - target: {fileID: 416928, guid: c0797f06b3843bd479cff53d3ec73eef, type: 3}
      propertyPath: m_LocalRotation.y
      value: 0
      objectReference: {fileID: 0}
    - target: {fileID: 416928, guid: c0797f06b3843bd479cff53d3ec73eef, type: 3}
      propertyPath: m_LocalRotation.z
      value: 0
      objectReference: {fileID: 0}
    m_RemovedComponents: []
    m_RemovedGameObjects: []
    m_AddedGameObjects: []
    m_AddedComponents: []
  m_SourcePrefab: {fileID: 100100000, guid: c0797f06b3843bd479cff53d3ec73eef, type: 3}
--- !u!1001 &1205102478
PrefabInstance:
  m_ObjectHideFlags: 0
  serializedVersion: 2
  m_Modification:
    serializedVersion: 3
    m_TransformParent: {fileID: 27833464}
    m_Modifications:
    - target: {fileID: 400000, guid: fbc5cd716e0ce9c41b07f09611b2fe28, type: 3}
      propertyPath: m_RootOrder
      value: 8
      objectReference: {fileID: 0}
    - target: {fileID: 400000, guid: fbc5cd716e0ce9c41b07f09611b2fe28, type: 3}
      propertyPath: m_LocalPosition.x
      value: 17.2196159
      objectReference: {fileID: 0}
    - target: {fileID: 400000, guid: fbc5cd716e0ce9c41b07f09611b2fe28, type: 3}
      propertyPath: m_LocalPosition.y
      value: 0
      objectReference: {fileID: 0}
    - target: {fileID: 400000, guid: fbc5cd716e0ce9c41b07f09611b2fe28, type: 3}
      propertyPath: m_LocalPosition.z
      value: -2.59372139
      objectReference: {fileID: 0}
    - target: {fileID: 400000, guid: fbc5cd716e0ce9c41b07f09611b2fe28, type: 3}
      propertyPath: m_LocalRotation.w
      value: 1
      objectReference: {fileID: 0}
    - target: {fileID: 400000, guid: fbc5cd716e0ce9c41b07f09611b2fe28, type: 3}
      propertyPath: m_LocalRotation.x
      value: 0
      objectReference: {fileID: 0}
    - target: {fileID: 400000, guid: fbc5cd716e0ce9c41b07f09611b2fe28, type: 3}
      propertyPath: m_LocalRotation.y
      value: 0
      objectReference: {fileID: 0}
    - target: {fileID: 400000, guid: fbc5cd716e0ce9c41b07f09611b2fe28, type: 3}
      propertyPath: m_LocalRotation.z
      value: 0
      objectReference: {fileID: 0}
    - target: {fileID: 2300000, guid: fbc5cd716e0ce9c41b07f09611b2fe28, type: 3}
      propertyPath: m_Materials.Array.data[0]
      value: 
      objectReference: {fileID: 2100000, guid: 77efaf0c87af98d44a142f9aaeafc89a, type: 2}
    - target: {fileID: 2300000, guid: fbc5cd716e0ce9c41b07f09611b2fe28, type: 3}
      propertyPath: m_Materials.Array.data[1]
      value: 
      objectReference: {fileID: 2100000, guid: 6f16583b3cb065f48b487527b1fa5f05, type: 2}
    m_RemovedComponents: []
    m_RemovedGameObjects: []
    m_AddedGameObjects: []
    m_AddedComponents: []
  m_SourcePrefab: {fileID: 100100000, guid: fbc5cd716e0ce9c41b07f09611b2fe28, type: 3}
--- !u!1001 &1217065344
PrefabInstance:
  m_ObjectHideFlags: 0
  serializedVersion: 2
  m_Modification:
    serializedVersion: 3
    m_TransformParent: {fileID: 27833464}
    m_Modifications:
    - target: {fileID: 100000, guid: 32284b0ddf7eba2469cec0d0f6006f26, type: 3}
      propertyPath: m_StaticEditorFlags
      value: 0
      objectReference: {fileID: 0}
    - target: {fileID: 400000, guid: 32284b0ddf7eba2469cec0d0f6006f26, type: 3}
      propertyPath: m_RootOrder
      value: 11
      objectReference: {fileID: 0}
    - target: {fileID: 400000, guid: 32284b0ddf7eba2469cec0d0f6006f26, type: 3}
      propertyPath: m_LocalPosition.x
      value: -25.927784
      objectReference: {fileID: 0}
    - target: {fileID: 400000, guid: 32284b0ddf7eba2469cec0d0f6006f26, type: 3}
      propertyPath: m_LocalPosition.y
      value: 0
      objectReference: {fileID: 0}
    - target: {fileID: 400000, guid: 32284b0ddf7eba2469cec0d0f6006f26, type: 3}
      propertyPath: m_LocalPosition.z
      value: -.635576248
      objectReference: {fileID: 0}
    - target: {fileID: 400000, guid: 32284b0ddf7eba2469cec0d0f6006f26, type: 3}
      propertyPath: m_LocalRotation.w
      value: 1
      objectReference: {fileID: 0}
    - target: {fileID: 400000, guid: 32284b0ddf7eba2469cec0d0f6006f26, type: 3}
      propertyPath: m_LocalRotation.x
      value: 0
      objectReference: {fileID: 0}
    - target: {fileID: 400000, guid: 32284b0ddf7eba2469cec0d0f6006f26, type: 3}
      propertyPath: m_LocalRotation.y
      value: 0
      objectReference: {fileID: 0}
    - target: {fileID: 400000, guid: 32284b0ddf7eba2469cec0d0f6006f26, type: 3}
      propertyPath: m_LocalRotation.z
      value: 0
      objectReference: {fileID: 0}
    - target: {fileID: 2300000, guid: 32284b0ddf7eba2469cec0d0f6006f26, type: 3}
      propertyPath: m_Materials.Array.data[0]
      value: 
      objectReference: {fileID: 2100000, guid: 77efaf0c87af98d44a142f9aaeafc89a, type: 2}
    - target: {fileID: 2300000, guid: 32284b0ddf7eba2469cec0d0f6006f26, type: 3}
      propertyPath: m_Materials.Array.data[1]
      value: 
      objectReference: {fileID: 2100000, guid: 6f16583b3cb065f48b487527b1fa5f05, type: 2}
    m_RemovedComponents: []
    m_RemovedGameObjects: []
    m_AddedGameObjects: []
    m_AddedComponents: []
  m_SourcePrefab: {fileID: 100100000, guid: 32284b0ddf7eba2469cec0d0f6006f26, type: 3}
--- !u!4 &1222319154 stripped
Transform:
  m_CorrespondingSourceObject: {fileID: 487510, guid: cd2001d15a8eb6d499482429c97830fd, type: 3}
  m_PrefabInstance: {fileID: 782631313}
  m_PrefabAsset: {fileID: 0}
--- !u!1001 &1253031974
PrefabInstance:
  m_ObjectHideFlags: 0
  serializedVersion: 2
  m_Modification:
    serializedVersion: 3
    m_TransformParent: {fileID: 882737261}
    m_Modifications:
    - target: {fileID: 429040, guid: f9ec4219b4d0d414fb84988d28dbf504, type: 3}
      propertyPath: m_RootOrder
      value: 4
      objectReference: {fileID: 0}
    - target: {fileID: 429040, guid: f9ec4219b4d0d414fb84988d28dbf504, type: 3}
      propertyPath: m_LocalPosition.x
      value: -1.45818138
      objectReference: {fileID: 0}
    - target: {fileID: 429040, guid: f9ec4219b4d0d414fb84988d28dbf504, type: 3}
      propertyPath: m_LocalPosition.y
      value: 0
      objectReference: {fileID: 0}
    - target: {fileID: 429040, guid: f9ec4219b4d0d414fb84988d28dbf504, type: 3}
      propertyPath: m_LocalPosition.z
      value: 4.01252747
      objectReference: {fileID: 0}
    - target: {fileID: 429040, guid: f9ec4219b4d0d414fb84988d28dbf504, type: 3}
      propertyPath: m_LocalRotation.w
      value: 1
      objectReference: {fileID: 0}
    - target: {fileID: 429040, guid: f9ec4219b4d0d414fb84988d28dbf504, type: 3}
      propertyPath: m_LocalRotation.x
      value: 0
      objectReference: {fileID: 0}
    - target: {fileID: 429040, guid: f9ec4219b4d0d414fb84988d28dbf504, type: 3}
      propertyPath: m_LocalRotation.y
      value: 0
      objectReference: {fileID: 0}
    - target: {fileID: 429040, guid: f9ec4219b4d0d414fb84988d28dbf504, type: 3}
      propertyPath: m_LocalRotation.z
      value: 0
      objectReference: {fileID: 0}
    m_RemovedComponents: []
    m_RemovedGameObjects: []
    m_AddedGameObjects: []
    m_AddedComponents: []
  m_SourcePrefab: {fileID: 100100000, guid: f9ec4219b4d0d414fb84988d28dbf504, type: 3}
--- !u!4 &1280002011 stripped
Transform:
  m_CorrespondingSourceObject: {fileID: 400000, guid: 84f582d01d32d3b42907ae29f9cc588e, type: 3}
  m_PrefabInstance: {fileID: 1094101098}
  m_PrefabAsset: {fileID: 0}
--- !u!4 &1287450589 stripped
Transform:
  m_CorrespondingSourceObject: {fileID: 400000, guid: af8f633b22ea4eb42a5f54897ae30dee, type: 3}
  m_PrefabInstance: {fileID: 953895660}
  m_PrefabAsset: {fileID: 0}
--- !u!1001 &1295934659
PrefabInstance:
  m_ObjectHideFlags: 0
  serializedVersion: 2
  m_Modification:
    serializedVersion: 3
    m_TransformParent: {fileID: 422136338}
    m_Modifications:
    - target: {fileID: 491618, guid: 13f6097cdfae79d44acca4175298212a, type: 3}
      propertyPath: m_RootOrder
      value: 11
      objectReference: {fileID: 0}
    - target: {fileID: 491618, guid: 13f6097cdfae79d44acca4175298212a, type: 3}
      propertyPath: m_LocalPosition.x
      value: -85.8199997
      objectReference: {fileID: 0}
    - target: {fileID: 491618, guid: 13f6097cdfae79d44acca4175298212a, type: 3}
      propertyPath: m_LocalPosition.y
      value: 0
      objectReference: {fileID: 0}
    - target: {fileID: 491618, guid: 13f6097cdfae79d44acca4175298212a, type: 3}
      propertyPath: m_LocalPosition.z
      value: 8.35999966
      objectReference: {fileID: 0}
    - target: {fileID: 491618, guid: 13f6097cdfae79d44acca4175298212a, type: 3}
      propertyPath: m_LocalRotation.w
      value: 1
      objectReference: {fileID: 0}
    - target: {fileID: 491618, guid: 13f6097cdfae79d44acca4175298212a, type: 3}
      propertyPath: m_LocalRotation.x
      value: 0
      objectReference: {fileID: 0}
    - target: {fileID: 491618, guid: 13f6097cdfae79d44acca4175298212a, type: 3}
      propertyPath: m_LocalRotation.y
      value: 0
      objectReference: {fileID: 0}
    - target: {fileID: 491618, guid: 13f6097cdfae79d44acca4175298212a, type: 3}
      propertyPath: m_LocalRotation.z
      value: 0
      objectReference: {fileID: 0}
    m_RemovedComponents: []
    m_RemovedGameObjects: []
    m_AddedGameObjects: []
    m_AddedComponents: []
  m_SourcePrefab: {fileID: 100100000, guid: 13f6097cdfae79d44acca4175298212a, type: 3}
--- !u!4 &1295934660 stripped
Transform:
  m_CorrespondingSourceObject: {fileID: 491618, guid: 13f6097cdfae79d44acca4175298212a, type: 3}
  m_PrefabInstance: {fileID: 1295934659}
  m_PrefabAsset: {fileID: 0}
--- !u!1001 &1311829757
PrefabInstance:
  m_ObjectHideFlags: 0
  serializedVersion: 2
  m_Modification:
    serializedVersion: 3
    m_TransformParent: {fileID: 882737261}
    m_Modifications:
    - target: {fileID: 410780, guid: eec387462a1a9464797ef20669c5ed46, type: 3}
      propertyPath: m_RootOrder
      value: 5
      objectReference: {fileID: 0}
    - target: {fileID: 410780, guid: eec387462a1a9464797ef20669c5ed46, type: 3}
      propertyPath: m_LocalPosition.x
      value: -.520000458
      objectReference: {fileID: 0}
    - target: {fileID: 410780, guid: eec387462a1a9464797ef20669c5ed46, type: 3}
      propertyPath: m_LocalPosition.y
      value: 0
      objectReference: {fileID: 0}
    - target: {fileID: 410780, guid: eec387462a1a9464797ef20669c5ed46, type: 3}
      propertyPath: m_LocalPosition.z
      value: -6.12000275
      objectReference: {fileID: 0}
    - target: {fileID: 410780, guid: eec387462a1a9464797ef20669c5ed46, type: 3}
      propertyPath: m_LocalRotation.w
      value: 1
      objectReference: {fileID: 0}
    - target: {fileID: 410780, guid: eec387462a1a9464797ef20669c5ed46, type: 3}
      propertyPath: m_LocalRotation.x
      value: 0
      objectReference: {fileID: 0}
    - target: {fileID: 410780, guid: eec387462a1a9464797ef20669c5ed46, type: 3}
      propertyPath: m_LocalRotation.y
      value: 0
      objectReference: {fileID: 0}
    - target: {fileID: 410780, guid: eec387462a1a9464797ef20669c5ed46, type: 3}
      propertyPath: m_LocalRotation.z
      value: 0
      objectReference: {fileID: 0}
    m_RemovedComponents: []
    m_RemovedGameObjects: []
    m_AddedGameObjects: []
    m_AddedComponents: []
  m_SourcePrefab: {fileID: 100100000, guid: eec387462a1a9464797ef20669c5ed46, type: 3}
--- !u!4 &1332646099 stripped
Transform:
  m_CorrespondingSourceObject: {fileID: 400000, guid: c6a0b547476f98441ab0a1e6338101b1, type: 3}
  m_PrefabInstance: {fileID: 1110303158}
  m_PrefabAsset: {fileID: 0}
--- !u!4 &1339621629 stripped
Transform:
  m_CorrespondingSourceObject: {fileID: 439526, guid: 1e21637fa77e9354bb389cc801db24d3, type: 3}
  m_PrefabInstance: {fileID: 1362797617}
  m_PrefabAsset: {fileID: 0}
--- !u!1001 &1362797617
PrefabInstance:
  m_ObjectHideFlags: 0
  serializedVersion: 2
  m_Modification:
    serializedVersion: 3
    m_TransformParent: {fileID: 882737261}
    m_Modifications:
    - target: {fileID: 439526, guid: 1e21637fa77e9354bb389cc801db24d3, type: 3}
      propertyPath: m_RootOrder
      value: 6
      objectReference: {fileID: 0}
    - target: {fileID: 439526, guid: 1e21637fa77e9354bb389cc801db24d3, type: 3}
      propertyPath: m_LocalPosition.x
      value: -6.93315315
      objectReference: {fileID: 0}
    - target: {fileID: 439526, guid: 1e21637fa77e9354bb389cc801db24d3, type: 3}
      propertyPath: m_LocalPosition.y
      value: 0
      objectReference: {fileID: 0}
    - target: {fileID: 439526, guid: 1e21637fa77e9354bb389cc801db24d3, type: 3}
      propertyPath: m_LocalPosition.z
      value: -1.93317413
      objectReference: {fileID: 0}
    - target: {fileID: 439526, guid: 1e21637fa77e9354bb389cc801db24d3, type: 3}
      propertyPath: m_LocalRotation.w
      value: 1
      objectReference: {fileID: 0}
    - target: {fileID: 439526, guid: 1e21637fa77e9354bb389cc801db24d3, type: 3}
      propertyPath: m_LocalRotation.x
      value: 0
      objectReference: {fileID: 0}
    - target: {fileID: 439526, guid: 1e21637fa77e9354bb389cc801db24d3, type: 3}
      propertyPath: m_LocalRotation.y
      value: 0
      objectReference: {fileID: 0}
    - target: {fileID: 439526, guid: 1e21637fa77e9354bb389cc801db24d3, type: 3}
      propertyPath: m_LocalRotation.z
      value: 0
      objectReference: {fileID: 0}
    m_RemovedComponents: []
    m_RemovedGameObjects: []
    m_AddedGameObjects: []
    m_AddedComponents: []
  m_SourcePrefab: {fileID: 100100000, guid: 1e21637fa77e9354bb389cc801db24d3, type: 3}
--- !u!1001 &1380420774
PrefabInstance:
  m_ObjectHideFlags: 0
  serializedVersion: 2
  m_Modification:
    serializedVersion: 3
    m_TransformParent: {fileID: 422136338}
    m_Modifications:
    - target: {fileID: 439894, guid: b7015e10553e74c42be74bf4c42965a1, type: 3}
      propertyPath: m_RootOrder
      value: 6
      objectReference: {fileID: 0}
    - target: {fileID: 439894, guid: b7015e10553e74c42be74bf4c42965a1, type: 3}
      propertyPath: m_LocalPosition.x
      value: -94.8212128
      objectReference: {fileID: 0}
    - target: {fileID: 439894, guid: b7015e10553e74c42be74bf4c42965a1, type: 3}
      propertyPath: m_LocalPosition.y
      value: -0
      objectReference: {fileID: 0}
    - target: {fileID: 439894, guid: b7015e10553e74c42be74bf4c42965a1, type: 3}
      propertyPath: m_LocalPosition.z
      value: 25.3689499
      objectReference: {fileID: 0}
    - target: {fileID: 439894, guid: b7015e10553e74c42be74bf4c42965a1, type: 3}
      propertyPath: m_LocalRotation.w
      value: 1
      objectReference: {fileID: 0}
    - target: {fileID: 439894, guid: b7015e10553e74c42be74bf4c42965a1, type: 3}
      propertyPath: m_LocalRotation.x
      value: 0
      objectReference: {fileID: 0}
    - target: {fileID: 439894, guid: b7015e10553e74c42be74bf4c42965a1, type: 3}
      propertyPath: m_LocalRotation.y
      value: 0
      objectReference: {fileID: 0}
    - target: {fileID: 439894, guid: b7015e10553e74c42be74bf4c42965a1, type: 3}
      propertyPath: m_LocalRotation.z
      value: 0
      objectReference: {fileID: 0}
    m_RemovedComponents: []
    m_RemovedGameObjects: []
    m_AddedGameObjects: []
    m_AddedComponents: []
  m_SourcePrefab: {fileID: 100100000, guid: b7015e10553e74c42be74bf4c42965a1, type: 3}
--- !u!4 &1380420775 stripped
Transform:
  m_CorrespondingSourceObject: {fileID: 439894, guid: b7015e10553e74c42be74bf4c42965a1, type: 3}
  m_PrefabInstance: {fileID: 1380420774}
  m_PrefabAsset: {fileID: 0}
--- !u!1001 &1381699354
PrefabInstance:
  m_ObjectHideFlags: 0
  serializedVersion: 2
  m_Modification:
    serializedVersion: 3
    m_TransformParent: {fileID: 882737261}
    m_Modifications:
    - target: {fileID: 490660, guid: 49f9ca51c63f1fd42a2fc61105f3e983, type: 3}
      propertyPath: m_RootOrder
      value: 7
      objectReference: {fileID: 0}
    - target: {fileID: 490660, guid: 49f9ca51c63f1fd42a2fc61105f3e983, type: 3}
      propertyPath: m_LocalPosition.x
      value: -4.67556381
      objectReference: {fileID: 0}
    - target: {fileID: 490660, guid: 49f9ca51c63f1fd42a2fc61105f3e983, type: 3}
      propertyPath: m_LocalPosition.y
      value: 0
      objectReference: {fileID: 0}
    - target: {fileID: 490660, guid: 49f9ca51c63f1fd42a2fc61105f3e983, type: 3}
      propertyPath: m_LocalPosition.z
      value: -4.63230896
      objectReference: {fileID: 0}
    - target: {fileID: 490660, guid: 49f9ca51c63f1fd42a2fc61105f3e983, type: 3}
      propertyPath: m_LocalRotation.w
      value: 1
      objectReference: {fileID: 0}
    - target: {fileID: 490660, guid: 49f9ca51c63f1fd42a2fc61105f3e983, type: 3}
      propertyPath: m_LocalRotation.x
      value: 0
      objectReference: {fileID: 0}
    - target: {fileID: 490660, guid: 49f9ca51c63f1fd42a2fc61105f3e983, type: 3}
      propertyPath: m_LocalRotation.y
      value: 0
      objectReference: {fileID: 0}
    - target: {fileID: 490660, guid: 49f9ca51c63f1fd42a2fc61105f3e983, type: 3}
      propertyPath: m_LocalRotation.z
      value: 0
      objectReference: {fileID: 0}
    m_RemovedComponents: []
    m_RemovedGameObjects: []
    m_AddedGameObjects: []
    m_AddedComponents: []
  m_SourcePrefab: {fileID: 100100000, guid: 49f9ca51c63f1fd42a2fc61105f3e983, type: 3}
--- !u!1001 &1481476101
PrefabInstance:
  m_ObjectHideFlags: 0
  serializedVersion: 2
  m_Modification:
    serializedVersion: 3
    m_TransformParent: {fileID: 27833464}
    m_Modifications:
    - target: {fileID: 400000, guid: f84c94350c56b594082c07f8ef831fbe, type: 3}
      propertyPath: m_RootOrder
      value: 7
      objectReference: {fileID: 0}
    - target: {fileID: 400000, guid: f84c94350c56b594082c07f8ef831fbe, type: 3}
      propertyPath: m_LocalPosition.x
      value: 13.4724998
      objectReference: {fileID: 0}
    - target: {fileID: 400000, guid: f84c94350c56b594082c07f8ef831fbe, type: 3}
      propertyPath: m_LocalPosition.y
      value: 0
      objectReference: {fileID: 0}
    - target: {fileID: 400000, guid: f84c94350c56b594082c07f8ef831fbe, type: 3}
      propertyPath: m_LocalPosition.z
      value: -2.14245796
      objectReference: {fileID: 0}
    - target: {fileID: 400000, guid: f84c94350c56b594082c07f8ef831fbe, type: 3}
      propertyPath: m_LocalRotation.w
      value: 1
      objectReference: {fileID: 0}
    - target: {fileID: 400000, guid: f84c94350c56b594082c07f8ef831fbe, type: 3}
      propertyPath: m_LocalRotation.x
      value: 0
      objectReference: {fileID: 0}
    - target: {fileID: 400000, guid: f84c94350c56b594082c07f8ef831fbe, type: 3}
      propertyPath: m_LocalRotation.y
      value: 0
      objectReference: {fileID: 0}
    - target: {fileID: 400000, guid: f84c94350c56b594082c07f8ef831fbe, type: 3}
      propertyPath: m_LocalRotation.z
      value: 0
      objectReference: {fileID: 0}
    - target: {fileID: 2300000, guid: f84c94350c56b594082c07f8ef831fbe, type: 3}
      propertyPath: m_Materials.Array.data[0]
      value: 
      objectReference: {fileID: 2100000, guid: 77efaf0c87af98d44a142f9aaeafc89a, type: 2}
    - target: {fileID: 2300000, guid: f84c94350c56b594082c07f8ef831fbe, type: 3}
      propertyPath: m_Materials.Array.data[1]
      value: 
      objectReference: {fileID: 2100000, guid: 6f16583b3cb065f48b487527b1fa5f05, type: 2}
    m_RemovedComponents: []
    m_RemovedGameObjects: []
    m_AddedGameObjects: []
    m_AddedComponents: []
  m_SourcePrefab: {fileID: 100100000, guid: f84c94350c56b594082c07f8ef831fbe, type: 3}
--- !u!1001 &1526282670
PrefabInstance:
  m_ObjectHideFlags: 0
  serializedVersion: 2
  m_Modification:
    serializedVersion: 3
    m_TransformParent: {fileID: 27833464}
    m_Modifications:
    - target: {fileID: 400000, guid: e318997edd53a1a4c922b2deee669aaa, type: 3}
      propertyPath: m_RootOrder
      value: 1
      objectReference: {fileID: 0}
    - target: {fileID: 400000, guid: e318997edd53a1a4c922b2deee669aaa, type: 3}
      propertyPath: m_LocalPosition.x
      value: -16.8296547
      objectReference: {fileID: 0}
    - target: {fileID: 400000, guid: e318997edd53a1a4c922b2deee669aaa, type: 3}
      propertyPath: m_LocalPosition.y
      value: 0
      objectReference: {fileID: 0}
    - target: {fileID: 400000, guid: e318997edd53a1a4c922b2deee669aaa, type: 3}
      propertyPath: m_LocalPosition.z
      value: -1.05044746
      objectReference: {fileID: 0}
    - target: {fileID: 400000, guid: e318997edd53a1a4c922b2deee669aaa, type: 3}
      propertyPath: m_LocalRotation.w
      value: 1
      objectReference: {fileID: 0}
    - target: {fileID: 400000, guid: e318997edd53a1a4c922b2deee669aaa, type: 3}
      propertyPath: m_LocalRotation.x
      value: 0
      objectReference: {fileID: 0}
    - target: {fileID: 400000, guid: e318997edd53a1a4c922b2deee669aaa, type: 3}
      propertyPath: m_LocalRotation.y
      value: 0
      objectReference: {fileID: 0}
    - target: {fileID: 400000, guid: e318997edd53a1a4c922b2deee669aaa, type: 3}
      propertyPath: m_LocalRotation.z
      value: 0
      objectReference: {fileID: 0}
    - target: {fileID: 2300000, guid: e318997edd53a1a4c922b2deee669aaa, type: 3}
      propertyPath: m_Materials.Array.data[0]
      value: 
      objectReference: {fileID: 2100000, guid: 77efaf0c87af98d44a142f9aaeafc89a, type: 2}
    - target: {fileID: 2300000, guid: e318997edd53a1a4c922b2deee669aaa, type: 3}
      propertyPath: m_Materials.Array.data[1]
      value: 
      objectReference: {fileID: 2100000, guid: 6f16583b3cb065f48b487527b1fa5f05, type: 2}
    m_RemovedComponents: []
    m_RemovedGameObjects: []
    m_AddedGameObjects: []
    m_AddedComponents: []
  m_SourcePrefab: {fileID: 100100000, guid: e318997edd53a1a4c922b2deee669aaa, type: 3}
--- !u!4 &1614710228 stripped
Transform:
  m_CorrespondingSourceObject: {fileID: 490660, guid: 49f9ca51c63f1fd42a2fc61105f3e983, type: 3}
  m_PrefabInstance: {fileID: 1381699354}
  m_PrefabAsset: {fileID: 0}
--- !u!1 &1643588238
GameObject:
  m_ObjectHideFlags: 0
  m_CorrespondingSourceObject: {fileID: 0}
  m_PrefabInstance: {fileID: 0}
  m_PrefabAsset: {fileID: 0}
  serializedVersion: 6
  m_Component:
  - component: {fileID: 1643588240}
  - component: {fileID: 1643588239}
  m_Layer: 0
  m_Name: Directional light
  m_TagString: Untagged
  m_Icon: {fileID: 0}
  m_NavMeshLayer: 0
  m_StaticEditorFlags: 0
  m_IsActive: 1
--- !u!108 &1643588239
Light:
  m_ObjectHideFlags: 0
  m_CorrespondingSourceObject: {fileID: 0}
  m_PrefabInstance: {fileID: 0}
  m_PrefabAsset: {fileID: 0}
  m_GameObject: {fileID: 1643588238}
  m_Enabled: 1
  serializedVersion: 10
  m_Type: 1
  m_Shape: 0
  m_Color: {r: 1, g: 1, b: 1, a: 1}
  m_Intensity: 0.99999994
  m_Range: 10
  m_SpotAngle: 30
  m_InnerSpotAngle: 21.80208
  m_CookieSize: 10
  m_Shadows:
    m_Type: 2
    m_Resolution: -1
    m_CustomResolution: -1
    m_Strength: 0.9
    m_Bias: 0.05
    m_NormalBias: 0.4
    m_NearPlane: 0.2
    m_CullingMatrixOverride:
      e00: 1
      e01: 0
      e02: 0
      e03: 0
      e10: 0
      e11: 1
      e12: 0
      e13: 0
      e20: 0
      e21: 0
      e22: 1
      e23: 0
      e30: 0
      e31: 0
      e32: 0
      e33: 1
    m_UseCullingMatrixOverride: 0
  m_Cookie: {fileID: 0}
  m_DrawHalo: 0
  m_Flare: {fileID: 0}
  m_RenderMode: 1
  m_CullingMask:
    serializedVersion: 2
    m_Bits: 4294967295
  m_RenderingLayerMask: 1
  m_Lightmapping: 4
  m_LightShadowCasterMode: 0
  m_AreaSize: {x: 1, y: 1}
  m_BounceIntensity: 1
  m_ColorTemperature: 6570
  m_UseColorTemperature: 0
  m_BoundingSphereOverride: {x: 0, y: 0, z: 0, w: 0}
  m_UseBoundingSphereOverride: 0
  m_UseViewFrustumForShadowCasterCull: 1
  m_ShadowRadius: 0
  m_ShadowAngle: 0
--- !u!4 &1643588240
Transform:
  m_ObjectHideFlags: 0
  m_CorrespondingSourceObject: {fileID: 0}
  m_PrefabInstance: {fileID: 0}
  m_PrefabAsset: {fileID: 0}
  m_GameObject: {fileID: 1643588238}
  serializedVersion: 2
  m_LocalRotation: {x: 0.40821794, y: -0.23456973, z: 0.10938166, w: 0.8754261}
  m_LocalPosition: {x: 0, y: 0, z: 0}
  m_LocalScale: {x: 1, y: 1, z: 1}
  m_ConstrainProportionsScale: 0
  m_Children: []
  m_Father: {fileID: 0}
  m_LocalEulerAnglesHint: {x: 0, y: 0, z: 0}
--- !u!1001 &1713171517
PrefabInstance:
  m_ObjectHideFlags: 0
  serializedVersion: 2
  m_Modification:
    serializedVersion: 3
    m_TransformParent: {fileID: 422136338}
    m_Modifications:
    - target: {fileID: 459114, guid: 95f86f1f0990c4b41ab62be60974c732, type: 3}
      propertyPath: m_RootOrder
      value: 7
      objectReference: {fileID: 0}
    - target: {fileID: 459114, guid: 95f86f1f0990c4b41ab62be60974c732, type: 3}
      propertyPath: m_LocalPosition.x
      value: -96.0997391
      objectReference: {fileID: 0}
    - target: {fileID: 459114, guid: 95f86f1f0990c4b41ab62be60974c732, type: 3}
      propertyPath: m_LocalPosition.y
      value: -0
      objectReference: {fileID: 0}
    - target: {fileID: 459114, guid: 95f86f1f0990c4b41ab62be60974c732, type: 3}
      propertyPath: m_LocalPosition.z
      value: 16.9620056
      objectReference: {fileID: 0}
    - target: {fileID: 459114, guid: 95f86f1f0990c4b41ab62be60974c732, type: 3}
      propertyPath: m_LocalRotation.w
      value: 1
      objectReference: {fileID: 0}
    - target: {fileID: 459114, guid: 95f86f1f0990c4b41ab62be60974c732, type: 3}
      propertyPath: m_LocalRotation.x
      value: 0
      objectReference: {fileID: 0}
    - target: {fileID: 459114, guid: 95f86f1f0990c4b41ab62be60974c732, type: 3}
      propertyPath: m_LocalRotation.y
      value: 0
      objectReference: {fileID: 0}
    - target: {fileID: 459114, guid: 95f86f1f0990c4b41ab62be60974c732, type: 3}
      propertyPath: m_LocalRotation.z
      value: 0
      objectReference: {fileID: 0}
    m_RemovedComponents: []
    m_RemovedGameObjects: []
    m_AddedGameObjects: []
    m_AddedComponents: []
  m_SourcePrefab: {fileID: 100100000, guid: 95f86f1f0990c4b41ab62be60974c732, type: 3}
--- !u!4 &1713171518 stripped
Transform:
  m_CorrespondingSourceObject: {fileID: 459114, guid: 95f86f1f0990c4b41ab62be60974c732, type: 3}
  m_PrefabInstance: {fileID: 1713171517}
  m_PrefabAsset: {fileID: 0}
--- !u!4 &1723692053 stripped
Transform:
  m_CorrespondingSourceObject: {fileID: 400000, guid: cd04206a30c78e84fbc449686e6b254c, type: 3}
  m_PrefabInstance: {fileID: 1752044609}
  m_PrefabAsset: {fileID: 0}
--- !u!4 &1723823965 stripped
Transform:
  m_CorrespondingSourceObject: {fileID: 400000, guid: fa685d05f0ae3cd46b1a25ad845962f6, type: 3}
  m_PrefabInstance: {fileID: 216196821}
  m_PrefabAsset: {fileID: 0}
--- !u!1001 &1747051499
PrefabInstance:
  m_ObjectHideFlags: 0
  serializedVersion: 2
  m_Modification:
    serializedVersion: 3
    m_TransformParent: {fileID: 422136338}
    m_Modifications:
    - target: {fileID: 412276, guid: 0d1a48b95430c604b93adbd07a23d89d, type: 3}
      propertyPath: m_RootOrder
      value: 8
      objectReference: {fileID: 0}
    - target: {fileID: 412276, guid: 0d1a48b95430c604b93adbd07a23d89d, type: 3}
      propertyPath: m_LocalPosition.x
      value: -87.3332367
      objectReference: {fileID: 0}
    - target: {fileID: 412276, guid: 0d1a48b95430c604b93adbd07a23d89d, type: 3}
      propertyPath: m_LocalPosition.y
      value: -0
      objectReference: {fileID: 0}
    - target: {fileID: 412276, guid: 0d1a48b95430c604b93adbd07a23d89d, type: 3}
      propertyPath: m_LocalPosition.z
      value: 15.2453022
      objectReference: {fileID: 0}
    - target: {fileID: 412276, guid: 0d1a48b95430c604b93adbd07a23d89d, type: 3}
      propertyPath: m_LocalRotation.w
      value: 1
      objectReference: {fileID: 0}
    - target: {fileID: 412276, guid: 0d1a48b95430c604b93adbd07a23d89d, type: 3}
      propertyPath: m_LocalRotation.x
      value: 0
      objectReference: {fileID: 0}
    - target: {fileID: 412276, guid: 0d1a48b95430c604b93adbd07a23d89d, type: 3}
      propertyPath: m_LocalRotation.y
      value: 0
      objectReference: {fileID: 0}
    - target: {fileID: 412276, guid: 0d1a48b95430c604b93adbd07a23d89d, type: 3}
      propertyPath: m_LocalRotation.z
      value: 0
      objectReference: {fileID: 0}
    m_RemovedComponents: []
    m_RemovedGameObjects: []
    m_AddedGameObjects: []
    m_AddedComponents: []
  m_SourcePrefab: {fileID: 100100000, guid: 0d1a48b95430c604b93adbd07a23d89d, type: 3}
--- !u!4 &1747051500 stripped
Transform:
  m_CorrespondingSourceObject: {fileID: 412276, guid: 0d1a48b95430c604b93adbd07a23d89d, type: 3}
  m_PrefabInstance: {fileID: 1747051499}
  m_PrefabAsset: {fileID: 0}
--- !u!1001 &1752044609
PrefabInstance:
  m_ObjectHideFlags: 0
  serializedVersion: 2
  m_Modification:
    serializedVersion: 3
    m_TransformParent: {fileID: 27833464}
    m_Modifications:
    - target: {fileID: 100000, guid: cd04206a30c78e84fbc449686e6b254c, type: 3}
      propertyPath: m_IsActive
      value: 1
      objectReference: {fileID: 0}
    - target: {fileID: 400000, guid: cd04206a30c78e84fbc449686e6b254c, type: 3}
      propertyPath: m_RootOrder
      value: 5
      objectReference: {fileID: 0}
    - target: {fileID: 400000, guid: cd04206a30c78e84fbc449686e6b254c, type: 3}
      propertyPath: m_LocalPosition.x
      value: -.568790436
      objectReference: {fileID: 0}
    - target: {fileID: 400000, guid: cd04206a30c78e84fbc449686e6b254c, type: 3}
      propertyPath: m_LocalPosition.y
      value: 0
      objectReference: {fileID: 0}
    - target: {fileID: 400000, guid: cd04206a30c78e84fbc449686e6b254c, type: 3}
      propertyPath: m_LocalPosition.z
      value: -1.71565437
      objectReference: {fileID: 0}
    - target: {fileID: 400000, guid: cd04206a30c78e84fbc449686e6b254c, type: 3}
      propertyPath: m_LocalRotation.w
      value: 1
      objectReference: {fileID: 0}
    - target: {fileID: 400000, guid: cd04206a30c78e84fbc449686e6b254c, type: 3}
      propertyPath: m_LocalRotation.x
      value: 0
      objectReference: {fileID: 0}
    - target: {fileID: 400000, guid: cd04206a30c78e84fbc449686e6b254c, type: 3}
      propertyPath: m_LocalRotation.y
      value: 0
      objectReference: {fileID: 0}
    - target: {fileID: 400000, guid: cd04206a30c78e84fbc449686e6b254c, type: 3}
      propertyPath: m_LocalRotation.z
      value: 0
      objectReference: {fileID: 0}
    - target: {fileID: 2300000, guid: cd04206a30c78e84fbc449686e6b254c, type: 3}
      propertyPath: m_Materials.Array.data[0]
      value: 
      objectReference: {fileID: 2100000, guid: 77efaf0c87af98d44a142f9aaeafc89a, type: 2}
    - target: {fileID: 2300000, guid: cd04206a30c78e84fbc449686e6b254c, type: 3}
      propertyPath: m_Materials.Array.data[1]
      value: 
      objectReference: {fileID: 2100000, guid: 6f16583b3cb065f48b487527b1fa5f05, type: 2}
    m_RemovedComponents: []
    m_RemovedGameObjects: []
    m_AddedGameObjects: []
    m_AddedComponents: []
  m_SourcePrefab: {fileID: 100100000, guid: cd04206a30c78e84fbc449686e6b254c, type: 3}
--- !u!4 &1814614084 stripped
Transform:
  m_CorrespondingSourceObject: {fileID: 400000, guid: fbc5cd716e0ce9c41b07f09611b2fe28, type: 3}
  m_PrefabInstance: {fileID: 1205102478}
  m_PrefabAsset: {fileID: 0}
--- !u!1001 &1898682358
PrefabInstance:
  m_ObjectHideFlags: 0
  serializedVersion: 2
  m_Modification:
    serializedVersion: 3
    m_TransformParent: {fileID: 882737261}
    m_Modifications:
    - target: {fileID: 459458, guid: 2c6f9b7f465b34e4c87e12adf663b39f, type: 3}
      propertyPath: m_RootOrder
      value: 8
      objectReference: {fileID: 0}
    - target: {fileID: 459458, guid: 2c6f9b7f465b34e4c87e12adf663b39f, type: 3}
      propertyPath: m_LocalPosition.x
      value: -2.64081764
      objectReference: {fileID: 0}
    - target: {fileID: 459458, guid: 2c6f9b7f465b34e4c87e12adf663b39f, type: 3}
      propertyPath: m_LocalPosition.y
      value: 0
      objectReference: {fileID: 0}
    - target: {fileID: 459458, guid: 2c6f9b7f465b34e4c87e12adf663b39f, type: 3}
      propertyPath: m_LocalPosition.z
      value: 2.83106995
      objectReference: {fileID: 0}
    - target: {fileID: 459458, guid: 2c6f9b7f465b34e4c87e12adf663b39f, type: 3}
      propertyPath: m_LocalRotation.w
      value: 1
      objectReference: {fileID: 0}
    - target: {fileID: 459458, guid: 2c6f9b7f465b34e4c87e12adf663b39f, type: 3}
      propertyPath: m_LocalRotation.x
      value: 0
      objectReference: {fileID: 0}
    - target: {fileID: 459458, guid: 2c6f9b7f465b34e4c87e12adf663b39f, type: 3}
      propertyPath: m_LocalRotation.y
      value: 0
      objectReference: {fileID: 0}
    - target: {fileID: 459458, guid: 2c6f9b7f465b34e4c87e12adf663b39f, type: 3}
      propertyPath: m_LocalRotation.z
      value: 0
      objectReference: {fileID: 0}
    m_RemovedComponents: []
    m_RemovedGameObjects: []
    m_AddedGameObjects: []
    m_AddedComponents: []
  m_SourcePrefab: {fileID: 100100000, guid: 2c6f9b7f465b34e4c87e12adf663b39f, type: 3}
--- !u!4 &1961794967 stripped
Transform:
  m_CorrespondingSourceObject: {fileID: 400000, guid: 744e5ce69c552f04daa65190ed02187e, type: 3}
  m_PrefabInstance: {fileID: 398429871}
  m_PrefabAsset: {fileID: 0}
--- !u!4 &1971554043 stripped
Transform:
  m_CorrespondingSourceObject: {fileID: 429040, guid: f9ec4219b4d0d414fb84988d28dbf504, type: 3}
  m_PrefabInstance: {fileID: 1253031974}
  m_PrefabAsset: {fileID: 0}
--- !u!1001 &1990917762
PrefabInstance:
  m_ObjectHideFlags: 0
  serializedVersion: 2
  m_Modification:
    serializedVersion: 3
    m_TransformParent: {fileID: 882737261}
    m_Modifications:
    - target: {fileID: 405402, guid: ddcd9d32ee511f14989f024994afb261, type: 3}
      propertyPath: m_RootOrder
      value: 9
      objectReference: {fileID: 0}
    - target: {fileID: 405402, guid: ddcd9d32ee511f14989f024994afb261, type: 3}
      propertyPath: m_LocalPosition.x
      value: 4.7780323
      objectReference: {fileID: 0}
    - target: {fileID: 405402, guid: ddcd9d32ee511f14989f024994afb261, type: 3}
      propertyPath: m_LocalPosition.y
      value: 0
      objectReference: {fileID: 0}
    - target: {fileID: 405402, guid: ddcd9d32ee511f14989f024994afb261, type: 3}
      propertyPath: m_LocalPosition.z
      value: 5.92779541
      objectReference: {fileID: 0}
    - target: {fileID: 405402, guid: ddcd9d32ee511f14989f024994afb261, type: 3}
      propertyPath: m_LocalRotation.w
      value: 1
      objectReference: {fileID: 0}
    - target: {fileID: 405402, guid: ddcd9d32ee511f14989f024994afb261, type: 3}
      propertyPath: m_LocalRotation.x
      value: 0
      objectReference: {fileID: 0}
    - target: {fileID: 405402, guid: ddcd9d32ee511f14989f024994afb261, type: 3}
      propertyPath: m_LocalRotation.y
      value: 0
      objectReference: {fileID: 0}
    - target: {fileID: 405402, guid: ddcd9d32ee511f14989f024994afb261, type: 3}
      propertyPath: m_LocalRotation.z
      value: 0
      objectReference: {fileID: 0}
    m_RemovedComponents: []
    m_RemovedGameObjects: []
    m_AddedGameObjects: []
    m_AddedComponents: []
  m_SourcePrefab: {fileID: 100100000, guid: ddcd9d32ee511f14989f024994afb261, type: 3}
--- !u!4 &1990917763 stripped
Transform:
  m_CorrespondingSourceObject: {fileID: 405402, guid: ddcd9d32ee511f14989f024994afb261, type: 3}
  m_PrefabInstance: {fileID: 1990917762}
  m_PrefabAsset: {fileID: 0}
--- !u!1001 &2048700229
PrefabInstance:
  m_ObjectHideFlags: 0
  serializedVersion: 2
  m_Modification:
    serializedVersion: 3
    m_TransformParent: {fileID: 422136338}
    m_Modifications:
    - target: {fileID: 431224, guid: ccafd6649062902409b7847275334b66, type: 3}
      propertyPath: m_RootOrder
      value: 9
      objectReference: {fileID: 0}
    - target: {fileID: 431224, guid: ccafd6649062902409b7847275334b66, type: 3}
      propertyPath: m_LocalPosition.x
      value: -92.1594086
      objectReference: {fileID: 0}
    - target: {fileID: 431224, guid: ccafd6649062902409b7847275334b66, type: 3}
      propertyPath: m_LocalPosition.y
      value: -0
      objectReference: {fileID: 0}
    - target: {fileID: 431224, guid: ccafd6649062902409b7847275334b66, type: 3}
      propertyPath: m_LocalPosition.z
      value: 15.0793257
      objectReference: {fileID: 0}
    - target: {fileID: 431224, guid: ccafd6649062902409b7847275334b66, type: 3}
      propertyPath: m_LocalRotation.w
      value: 1
      objectReference: {fileID: 0}
    - target: {fileID: 431224, guid: ccafd6649062902409b7847275334b66, type: 3}
      propertyPath: m_LocalRotation.x
      value: 0
      objectReference: {fileID: 0}
    - target: {fileID: 431224, guid: ccafd6649062902409b7847275334b66, type: 3}
      propertyPath: m_LocalRotation.y
      value: 0
      objectReference: {fileID: 0}
    - target: {fileID: 431224, guid: ccafd6649062902409b7847275334b66, type: 3}
      propertyPath: m_LocalRotation.z
      value: 0
      objectReference: {fileID: 0}
    m_RemovedComponents: []
    m_RemovedGameObjects: []
    m_AddedGameObjects: []
    m_AddedComponents: []
  m_SourcePrefab: {fileID: 100100000, guid: ccafd6649062902409b7847275334b66, type: 3}
--- !u!4 &2048700230 stripped
Transform:
  m_CorrespondingSourceObject: {fileID: 431224, guid: ccafd6649062902409b7847275334b66, type: 3}
  m_PrefabInstance: {fileID: 2048700229}
  m_PrefabAsset: {fileID: 0}
--- !u!1001 &2073184746
PrefabInstance:
  m_ObjectHideFlags: 0
  serializedVersion: 2
  m_Modification:
    serializedVersion: 3
    m_TransformParent: {fileID: 422136338}
    m_Modifications:
    - target: {fileID: 496174, guid: 1e96e737ba439e54a858591faf6298c2, type: 3}
      propertyPath: m_RootOrder
      value: 10
      objectReference: {fileID: 0}
    - target: {fileID: 496174, guid: 1e96e737ba439e54a858591faf6298c2, type: 3}
      propertyPath: m_LocalPosition.x
      value: -91.8154755
      objectReference: {fileID: 0}
    - target: {fileID: 496174, guid: 1e96e737ba439e54a858591faf6298c2, type: 3}
      propertyPath: m_LocalPosition.y
      value: -0
      objectReference: {fileID: 0}
    - target: {fileID: 496174, guid: 1e96e737ba439e54a858591faf6298c2, type: 3}
      propertyPath: m_LocalPosition.z
      value: 10.9329367
      objectReference: {fileID: 0}
    - target: {fileID: 496174, guid: 1e96e737ba439e54a858591faf6298c2, type: 3}
      propertyPath: m_LocalRotation.w
      value: 1
      objectReference: {fileID: 0}
    - target: {fileID: 496174, guid: 1e96e737ba439e54a858591faf6298c2, type: 3}
      propertyPath: m_LocalRotation.x
      value: 0
      objectReference: {fileID: 0}
    - target: {fileID: 496174, guid: 1e96e737ba439e54a858591faf6298c2, type: 3}
      propertyPath: m_LocalRotation.y
      value: 0
      objectReference: {fileID: 0}
    - target: {fileID: 496174, guid: 1e96e737ba439e54a858591faf6298c2, type: 3}
      propertyPath: m_LocalRotation.z
      value: 0
      objectReference: {fileID: 0}
    m_RemovedComponents: []
    m_RemovedGameObjects: []
    m_AddedGameObjects: []
    m_AddedComponents: []
  m_SourcePrefab: {fileID: 100100000, guid: 1e96e737ba439e54a858591faf6298c2, type: 3}
--- !u!4 &2073184747 stripped
Transform:
  m_CorrespondingSourceObject: {fileID: 496174, guid: 1e96e737ba439e54a858591faf6298c2, type: 3}
  m_PrefabInstance: {fileID: 2073184746}
  m_PrefabAsset: {fileID: 0}
--- !u!1001 &2080579015
PrefabInstance:
  m_ObjectHideFlags: 0
  serializedVersion: 2
  m_Modification:
    serializedVersion: 3
    m_TransformParent: {fileID: 882737261}
    m_Modifications:
    - target: {fileID: 479146, guid: b75e8d8222ec3e24ab74b7ba10ddd7a4, type: 3}
      propertyPath: m_RootOrder
      value: 10
      objectReference: {fileID: 0}
    - target: {fileID: 479146, guid: b75e8d8222ec3e24ab74b7ba10ddd7a4, type: 3}
      propertyPath: m_LocalPosition.x
      value: -6.67935753
      objectReference: {fileID: 0}
    - target: {fileID: 479146, guid: b75e8d8222ec3e24ab74b7ba10ddd7a4, type: 3}
      propertyPath: m_LocalPosition.y
      value: 0
      objectReference: {fileID: 0}
    - target: {fileID: 479146, guid: b75e8d8222ec3e24ab74b7ba10ddd7a4, type: 3}
      propertyPath: m_LocalPosition.z
      value: -.0478363037
      objectReference: {fileID: 0}
    - target: {fileID: 479146, guid: b75e8d8222ec3e24ab74b7ba10ddd7a4, type: 3}
      propertyPath: m_LocalRotation.w
      value: 1
      objectReference: {fileID: 0}
    - target: {fileID: 479146, guid: b75e8d8222ec3e24ab74b7ba10ddd7a4, type: 3}
      propertyPath: m_LocalRotation.x
      value: 0
      objectReference: {fileID: 0}
    - target: {fileID: 479146, guid: b75e8d8222ec3e24ab74b7ba10ddd7a4, type: 3}
      propertyPath: m_LocalRotation.y
      value: 0
      objectReference: {fileID: 0}
    - target: {fileID: 479146, guid: b75e8d8222ec3e24ab74b7ba10ddd7a4, type: 3}
      propertyPath: m_LocalRotation.z
      value: 0
      objectReference: {fileID: 0}
    m_RemovedComponents: []
    m_RemovedGameObjects: []
    m_AddedGameObjects: []
    m_AddedComponents: []
  m_SourcePrefab: {fileID: 100100000, guid: b75e8d8222ec3e24ab74b7ba10ddd7a4, type: 3}
--- !u!4 &2080579016 stripped
Transform:
  m_CorrespondingSourceObject: {fileID: 479146, guid: b75e8d8222ec3e24ab74b7ba10ddd7a4, type: 3}
  m_PrefabInstance: {fileID: 2080579015}
  m_PrefabAsset: {fileID: 0}
--- !u!1001 &2091131063
PrefabInstance:
  m_ObjectHideFlags: 0
  serializedVersion: 2
  m_Modification:
    serializedVersion: 3
    m_TransformParent: {fileID: 882737261}
    m_Modifications:
    - target: {fileID: 415694, guid: 360ab34753a7cfd47980f83d207ace27, type: 3}
      propertyPath: m_RootOrder
      value: 11
      objectReference: {fileID: 0}
    - target: {fileID: 415694, guid: 360ab34753a7cfd47980f83d207ace27, type: 3}
      propertyPath: m_LocalPosition.x
      value: -.245674133
      objectReference: {fileID: 0}
    - target: {fileID: 415694, guid: 360ab34753a7cfd47980f83d207ace27, type: 3}
      propertyPath: m_LocalPosition.y
      value: 0
      objectReference: {fileID: 0}
    - target: {fileID: 415694, guid: 360ab34753a7cfd47980f83d207ace27, type: 3}
      propertyPath: m_LocalPosition.z
      value: -1.93190765
      objectReference: {fileID: 0}
    - target: {fileID: 415694, guid: 360ab34753a7cfd47980f83d207ace27, type: 3}
      propertyPath: m_LocalRotation.w
      value: 1
      objectReference: {fileID: 0}
    - target: {fileID: 415694, guid: 360ab34753a7cfd47980f83d207ace27, type: 3}
      propertyPath: m_LocalRotation.x
      value: 0
      objectReference: {fileID: 0}
    - target: {fileID: 415694, guid: 360ab34753a7cfd47980f83d207ace27, type: 3}
      propertyPath: m_LocalRotation.y
      value: 0
      objectReference: {fileID: 0}
    - target: {fileID: 415694, guid: 360ab34753a7cfd47980f83d207ace27, type: 3}
      propertyPath: m_LocalRotation.z
      value: 0
      objectReference: {fileID: 0}
    m_RemovedComponents: []
    m_RemovedGameObjects: []
    m_AddedGameObjects: []
    m_AddedComponents: []
  m_SourcePrefab: {fileID: 100100000, guid: 360ab34753a7cfd47980f83d207ace27, type: 3}
--- !u!4 &2091131064 stripped
Transform:
  m_CorrespondingSourceObject: {fileID: 415694, guid: 360ab34753a7cfd47980f83d207ace27, type: 3}
  m_PrefabInstance: {fileID: 2091131063}
  m_PrefabAsset: {fileID: 0}
--- !u!1 &2131633913
GameObject:
  m_ObjectHideFlags: 0
  m_CorrespondingSourceObject: {fileID: 0}
  m_PrefabInstance: {fileID: 0}
  m_PrefabAsset: {fileID: 0}
  serializedVersion: 6
  m_Component:
  - component: {fileID: 2131633917}
  - component: {fileID: 2131633916}
  - component: {fileID: 2131633915}
  - component: {fileID: 2131633914}
  m_Layer: 0
  m_Name: Plane
  m_TagString: Untagged
  m_Icon: {fileID: 0}
  m_NavMeshLayer: 0
  m_StaticEditorFlags: 0
  m_IsActive: 1
--- !u!23 &2131633914
MeshRenderer:
  m_ObjectHideFlags: 0
  m_CorrespondingSourceObject: {fileID: 0}
  m_PrefabInstance: {fileID: 0}
  m_PrefabAsset: {fileID: 0}
  m_GameObject: {fileID: 2131633913}
  m_Enabled: 1
  m_CastShadows: 1
  m_ReceiveShadows: 1
  m_DynamicOccludee: 1
  m_StaticShadowCaster: 0
  m_MotionVectors: 1
  m_LightProbeUsage: 0
  m_ReflectionProbeUsage: 1
  m_RayTracingMode: 2
  m_RayTraceProcedural: 0
  m_RenderingLayerMask: 1
  m_RendererPriority: 0
  m_Materials:
  - {fileID: 10302, guid: 0000000000000000f000000000000000, type: 0}
  m_StaticBatchInfo:
    firstSubMesh: 0
    subMeshCount: 0
  m_StaticBatchRoot: {fileID: 0}
  m_ProbeAnchor: {fileID: 0}
  m_LightProbeVolumeOverride: {fileID: 0}
  m_ScaleInLightmap: 1
  m_ReceiveGI: 1
  m_PreserveUVs: 0
  m_IgnoreNormalsForChartDetection: 0
  m_ImportantGI: 0
  m_StitchLightmapSeams: 1
  m_SelectedEditorRenderState: 3
  m_MinimumChartSize: 4
  m_AutoUVMaxDistance: 0.5
  m_AutoUVMaxAngle: 89
  m_LightmapParameters: {fileID: 0}
  m_SortingLayerID: 0
  m_SortingLayer: 0
  m_SortingOrder: 0
  m_AdditionalVertexStreams: {fileID: 0}
--- !u!64 &2131633915
MeshCollider:
  m_ObjectHideFlags: 0
  m_CorrespondingSourceObject: {fileID: 0}
  m_PrefabInstance: {fileID: 0}
  m_PrefabAsset: {fileID: 0}
  m_GameObject: {fileID: 2131633913}
  m_Material: {fileID: 0}
  m_IncludeLayers:
    serializedVersion: 2
    m_Bits: 0
  m_ExcludeLayers:
    serializedVersion: 2
    m_Bits: 0
  m_LayerOverridePriority: 0
  m_IsTrigger: 0
  m_ProvidesContacts: 0
  m_Enabled: 1
  serializedVersion: 5
  m_Convex: 0
  m_CookingOptions: 30
  m_Mesh: {fileID: 10209, guid: 0000000000000000e000000000000000, type: 0}
--- !u!33 &2131633916
MeshFilter:
  m_ObjectHideFlags: 0
  m_CorrespondingSourceObject: {fileID: 0}
  m_PrefabInstance: {fileID: 0}
  m_PrefabAsset: {fileID: 0}
  m_GameObject: {fileID: 2131633913}
  m_Mesh: {fileID: 10209, guid: 0000000000000000e000000000000000, type: 0}
--- !u!4 &2131633917
Transform:
  m_ObjectHideFlags: 0
  m_CorrespondingSourceObject: {fileID: 0}
  m_PrefabInstance: {fileID: 0}
  m_PrefabAsset: {fileID: 0}
  m_GameObject: {fileID: 2131633913}
  serializedVersion: 2
  m_LocalRotation: {x: 0, y: 0, z: 0, w: 1}
  m_LocalPosition: {x: 0, y: 0, z: 0}
  m_LocalScale: {x: 1000, y: 1, z: 1000}
  m_ConstrainProportionsScale: 0
  m_Children: []
  m_Father: {fileID: 0}
  m_LocalEulerAnglesHint: {x: 0, y: 0, z: 0}
--- !u!1660057539 &9223372036854775807
SceneRoots:
  m_ObjectHideFlags: 0
  m_Roots:
  - {fileID: 857046438}
  - {fileID: 1643588240}
  - {fileID: 2131633917}
  - {fileID: 1154073272}
  - {fileID: 422136338}
