%YAML 1.1
%TAG !u! tag:unity3d.com,2011:
--- !u!114 &11400000
MonoBehaviour:
  m_ObjectHideFlags: 0
  m_CorrespondingSourceObject: {fileID: 0}
  m_PrefabInstance: {fileID: 0}
  m_PrefabAsset: {fileID: 0}
  m_GameObject: {fileID: 0}
  m_Enabled: 1
  m_EditorHideFlags: 0
  m_Script: {fileID: 11500000, guid: e5907597245872e44881323ce16d80b4, type: 3}
  m_Name: Tree
  m_EditorClassIdentifier: 
  gameObjectToSpawn: {fileID: 122562, guid: 13f6097cdfae79d44acca4175298212a, type: 3}
  spawnNum: 10
  minSpawnHeightRatio: 0.05
  maxSpawnHeightRatio: 0.2
  scale: 0.001
